data2/4-2_yugami_nashi_output.CSV

Model,TBS1052C
Firmware Version,v2015-08-04-prequal4ch70_v1.3

Point Format,Y
Horizontal Units,S
Horizontal Scale,0.004
Sample Interval,3.2e-05
Filter Frequency,2e+08
Record Length,2000
Gating,0.0% to 100.0%
Probe Attenuation,10
Vertical Units,V
Vertical Offset,0
Vertical Scale,1
Label,
TIME,CH1
-3.200e-02,-2.78
-3.197e-02,-2.74
-3.194e-02,-2.7
-3.190e-02,-2.7
-3.187e-02,-2.66
-3.184e-02,-2.62
-3.181e-02,-2.62
-3.178e-02,-2.58
-3.174e-02,-2.58
-3.171e-02,-2.54
-3.168e-02,-2.5
-3.165e-02,-2.46
-3.162e-02,-2.42
-3.158e-02,-2.38
-3.155e-02,-2.38
-3.152e-02,-2.34
-3.149e-02,-2.3
-3.146e-02,-2.26
-3.142e-02,-2.22
-3.139e-02,-2.18
-3.136e-02,-2.14
-3.133e-02,-2.1
-3.130e-02,-2.06
-3.126e-02,-2.02
-3.123e-02,-1.98
-3.120e-02,-1.98
-3.117e-02,-1.9
-3.114e-02,-1.86
-3.110e-02,-1.82
-3.107e-02,-1.78
-3.104e-02,-1.74
-3.101e-02,-1.7
-3.098e-02,-1.66
-3.094e-02,-1.58
-3.091e-02,-1.54
-3.088e-02,-1.5
-3.085e-02,-1.46
-3.082e-02,-1.38
-3.078e-02,-1.34
-3.075e-02,-1.3
-3.072e-02,-1.22
-3.069e-02,-1.18
-3.066e-02,-1.18
-3.062e-02,-1.1
-3.059e-02,-1.02
-3.056e-02,-0.98
-3.053e-02,-0.94
-3.050e-02,-0.86
-3.046e-02,-0.86
-3.043e-02,-0.78
-3.040e-02,-0.74
-3.037e-02,-0.66
-3.034e-02,-0.62
-3.030e-02,-0.54
-3.027e-02,-0.5
-3.024e-02,-0.42
-3.021e-02,-0.38
-3.018e-02,-0.34
-3.014e-02,-0.26
-3.011e-02,-0.18
-3.008e-02,-0.14
-3.005e-02,-0.1
-3.002e-02,-0.02
-2.998e-02,0.02
-2.995e-02,0.06
-2.992e-02,0.14
-2.989e-02,0.18
-2.986e-02,0.26
-2.982e-02,0.3
-2.979e-02,0.34
-2.976e-02,0.42
-2.973e-02,0.46
-2.970e-02,0.54
-2.966e-02,0.58
-2.963e-02,0.62
-2.960e-02,0.66
-2.957e-02,0.74
-2.954e-02,0.78
-2.950e-02,0.86
-2.947e-02,0.9
-2.944e-02,0.98
-2.941e-02,1.02
-2.938e-02,1.06
-2.934e-02,1.1
-2.931e-02,1.18
-2.928e-02,1.22
-2.925e-02,1.26
-2.922e-02,1.3
-2.918e-02,1.38
-2.915e-02,1.42
-2.912e-02,1.46
-2.909e-02,1.5
-2.906e-02,1.54
-2.902e-02,1.62
-2.899e-02,1.66
-2.896e-02,1.7
-2.893e-02,1.74
-2.890e-02,1.78
-2.886e-02,1.82
-2.883e-02,1.86
-2.880e-02,1.9
-2.877e-02,1.98
-2.874e-02,2.02
-2.870e-02,2.06
-2.867e-02,2.06
-2.864e-02,2.14
-2.861e-02,2.14
-2.858e-02,2.18
-2.854e-02,2.22
-2.851e-02,2.26
-2.848e-02,2.3
-2.845e-02,2.34
-2.842e-02,2.38
-2.838e-02,2.38
-2.835e-02,2.42
-2.832e-02,2.46
-2.829e-02,2.5
-2.826e-02,2.5
-2.822e-02,2.54
-2.819e-02,2.58
-2.816e-02,2.58
-2.813e-02,2.62
-2.810e-02,2.62
-2.806e-02,2.66
-2.803e-02,2.66
-2.800e-02,2.7
-2.797e-02,2.7
-2.794e-02,2.74
-2.790e-02,2.74
-2.787e-02,2.74
-2.784e-02,2.78
-2.781e-02,2.78
-2.778e-02,2.78
-2.774e-02,2.78
-2.771e-02,2.82
-2.768e-02,2.82
-2.765e-02,2.82
-2.762e-02,2.82
-2.758e-02,2.82
-2.755e-02,2.86
-2.752e-02,2.86
-2.749e-02,2.86
-2.746e-02,2.86
-2.742e-02,2.82
-2.739e-02,2.82
-2.736e-02,2.82
-2.733e-02,2.82
-2.730e-02,2.82
-2.726e-02,2.82
-2.723e-02,2.78
-2.720e-02,2.78
-2.717e-02,2.78
-2.714e-02,2.78
-2.710e-02,2.74
-2.707e-02,2.74
-2.704e-02,2.74
-2.701e-02,2.7
-2.698e-02,2.7
-2.694e-02,2.66
-2.691e-02,2.66
-2.688e-02,2.62
-2.685e-02,2.62
-2.682e-02,2.58
-2.678e-02,2.54
-2.675e-02,2.54
-2.672e-02,2.5
-2.669e-02,2.5
-2.666e-02,2.46
-2.662e-02,2.42
-2.659e-02,2.38
-2.656e-02,2.38
-2.653e-02,2.34
-2.650e-02,2.3
-2.646e-02,2.26
-2.643e-02,2.22
-2.640e-02,2.22
-2.637e-02,2.14
-2.634e-02,2.14
-2.630e-02,2.1
-2.627e-02,2.06
-2.624e-02,2.02
-2.621e-02,1.98
-2.618e-02,1.94
-2.614e-02,1.9
-2.611e-02,1.86
-2.608e-02,1.82
-2.605e-02,1.78
-2.602e-02,1.7
-2.598e-02,1.66
-2.595e-02,1.62
-2.592e-02,1.58
-2.589e-02,1.5
-2.586e-02,1.46
-2.582e-02,1.42
-2.579e-02,1.38
-2.576e-02,1.3
-2.573e-02,1.26
-2.570e-02,1.22
-2.566e-02,1.18
-2.563e-02,1.1
-2.560e-02,1.06
-2.557e-02,1.02
-2.554e-02,0.98
-2.550e-02,0.9
-2.547e-02,0.86
-2.544e-02,0.82
-2.541e-02,0.74
-2.538e-02,0.7
-2.534e-02,0.66
-2.531e-02,0.62
-2.528e-02,0.54
-2.525e-02,0.46
-2.522e-02,0.42
-2.518e-02,0.38
-2.515e-02,0.3
-2.512e-02,0.22
-2.509e-02,0.18
-2.506e-02,0.14
-2.502e-02,0.1
-2.499e-02,0.02
-2.496e-02,-0.02
-2.493e-02,-0.1
-2.490e-02,-0.14
-2.486e-02,-0.22
-2.483e-02,-0.26
-2.480e-02,-0.3
-2.477e-02,-0.38
-2.474e-02,-0.42
-2.470e-02,-0.46
-2.467e-02,-0.54
-2.464e-02,-0.58
-2.461e-02,-0.66
-2.458e-02,-0.7
-2.454e-02,-0.78
-2.451e-02,-0.82
-2.448e-02,-0.86
-2.445e-02,-0.9
-2.442e-02,-0.98
-2.438e-02,-1.02
-2.435e-02,-1.06
-2.432e-02,-1.14
-2.429e-02,-1.22
-2.426e-02,-1.26
-2.422e-02,-1.3
-2.419e-02,-1.34
-2.416e-02,-1.38
-2.413e-02,-1.46
-2.410e-02,-1.5
-2.406e-02,-1.54
-2.403e-02,-1.58
-2.400e-02,-1.62
-2.397e-02,-1.7
-2.394e-02,-1.74
-2.390e-02,-1.78
-2.387e-02,-1.82
-2.384e-02,-1.86
-2.381e-02,-1.9
-2.378e-02,-1.94
-2.374e-02,-1.98
-2.371e-02,-2.02
-2.368e-02,-2.06
-2.365e-02,-2.1
-2.362e-02,-2.14
-2.358e-02,-2.18
-2.355e-02,-2.26
-2.352e-02,-2.26
-2.349e-02,-2.3
-2.346e-02,-2.34
-2.342e-02,-2.38
-2.339e-02,-2.38
-2.336e-02,-2.46
-2.333e-02,-2.46
-2.330e-02,-2.5
-2.326e-02,-2.54
-2.323e-02,-2.58
-2.320e-02,-2.58
-2.317e-02,-2.62
-2.314e-02,-2.66
-2.310e-02,-2.66
-2.307e-02,-2.7
-2.304e-02,-2.7
-2.301e-02,-2.74
-2.298e-02,-2.78
-2.294e-02,-2.78
-2.291e-02,-2.82
-2.288e-02,-2.82
-2.285e-02,-2.82
-2.282e-02,-2.86
-2.278e-02,-2.86
-2.275e-02,-2.86
-2.272e-02,-2.86
-2.269e-02,-2.9
-2.266e-02,-2.9
-2.262e-02,-2.9
-2.259e-02,-2.9
-2.256e-02,-2.94
-2.253e-02,-2.94
-2.250e-02,-2.94
-2.246e-02,-2.94
-2.243e-02,-2.94
-2.240e-02,-2.94
-2.237e-02,-2.94
-2.234e-02,-2.94
-2.230e-02,-2.9
-2.227e-02,-2.9
-2.224e-02,-2.9
-2.221e-02,-2.86
-2.218e-02,-2.86
-2.214e-02,-2.86
-2.211e-02,-2.86
-2.208e-02,-2.82
-2.205e-02,-2.82
-2.202e-02,-2.78
-2.198e-02,-2.78
-2.195e-02,-2.74
-2.192e-02,-2.7
-2.189e-02,-2.7
-2.186e-02,-2.66
-2.182e-02,-2.62
-2.179e-02,-2.62
-2.176e-02,-2.58
-2.173e-02,-2.54
-2.170e-02,-2.54
-2.166e-02,-2.5
-2.163e-02,-2.46
-2.160e-02,-2.42
-2.157e-02,-2.38
-2.154e-02,-2.34
-2.150e-02,-2.3
-2.147e-02,-2.3
-2.144e-02,-2.22
-2.141e-02,-2.18
-2.138e-02,-2.14
-2.134e-02,-2.14
-2.131e-02,-2.1
-2.128e-02,-2.06
-2.125e-02,-2.02
-2.122e-02,-1.98
-2.118e-02,-1.94
-2.115e-02,-1.9
-2.112e-02,-1.82
-2.109e-02,-1.78
-2.106e-02,-1.74
-2.102e-02,-1.7
-2.099e-02,-1.66
-2.096e-02,-1.62
-2.093e-02,-1.58
-2.090e-02,-1.54
-2.086e-02,-1.46
-2.083e-02,-1.42
-2.080e-02,-1.38
-2.077e-02,-1.34
-2.074e-02,-1.26
-2.070e-02,-1.22
-2.067e-02,-1.18
-2.064e-02,-1.1
-2.061e-02,-1.06
-2.058e-02,-1.02
-2.054e-02,-0.94
-2.051e-02,-0.9
-2.048e-02,-0.86
-2.045e-02,-0.82
-2.042e-02,-0.74
-2.038e-02,-0.7
-2.035e-02,-0.62
-2.032e-02,-0.58
-2.029e-02,-0.54
-2.026e-02,-0.46
-2.022e-02,-0.42
-2.019e-02,-0.34
-2.016e-02,-0.3
-2.013e-02,-0.26
-2.010e-02,-0.18
-2.006e-02,-0.14
-2.003e-02,-0.06
-2.000e-02,-0.02
-1.997e-02,0.02
-1.994e-02,0.1
-1.990e-02,0.18
-1.987e-02,0.22
-1.984e-02,0.26
-1.981e-02,0.34
-1.978e-02,0.38
-1.974e-02,0.46
-1.971e-02,0.5
-1.968e-02,0.54
-1.965e-02,0.62
-1.962e-02,0.66
-1.958e-02,0.7
-1.955e-02,0.78
-1.952e-02,0.82
-1.949e-02,0.86
-1.946e-02,0.94
-1.942e-02,0.98
-1.939e-02,1.06
-1.936e-02,1.1
-1.933e-02,1.14
-1.930e-02,1.18
-1.926e-02,1.22
-1.923e-02,1.3
-1.920e-02,1.34
-1.917e-02,1.38
-1.914e-02,1.42
-1.910e-02,1.46
-1.907e-02,1.54
-1.904e-02,1.58
-1.901e-02,1.62
-1.898e-02,1.66
-1.894e-02,1.74
-1.891e-02,1.78
-1.888e-02,1.82
-1.885e-02,1.86
-1.882e-02,1.9
-1.878e-02,1.94
-1.875e-02,1.98
-1.872e-02,2.02
-1.869e-02,2.06
-1.866e-02,2.1
-1.862e-02,2.14
-1.859e-02,2.18
-1.856e-02,2.22
-1.853e-02,2.22
-1.850e-02,2.26
-1.846e-02,2.34
-1.843e-02,2.34
-1.840e-02,2.38
-1.837e-02,2.42
-1.834e-02,2.46
-1.830e-02,2.5
-1.827e-02,2.5
-1.824e-02,2.54
-1.821e-02,2.54
-1.818e-02,2.58
-1.814e-02,2.58
-1.811e-02,2.62
-1.808e-02,2.62
-1.805e-02,2.66
-1.802e-02,2.66
-1.798e-02,2.7
-1.795e-02,2.7
-1.792e-02,2.74
-1.789e-02,2.74
-1.786e-02,2.74
-1.782e-02,2.78
-1.779e-02,2.78
-1.776e-02,2.78
-1.773e-02,2.78
-1.770e-02,2.82
-1.766e-02,2.82
-1.763e-02,2.82
-1.760e-02,2.82
-1.757e-02,2.82
-1.754e-02,2.82
-1.750e-02,2.82
-1.747e-02,2.86
-1.744e-02,2.82
-1.741e-02,2.82
-1.738e-02,2.82
-1.734e-02,2.82
-1.731e-02,2.82
-1.728e-02,2.78
-1.725e-02,2.78
-1.722e-02,2.78
-1.718e-02,2.78
-1.715e-02,2.74
-1.712e-02,2.78
-1.709e-02,2.74
-1.706e-02,2.74
-1.702e-02,2.7
-1.699e-02,2.7
-1.696e-02,2.66
-1.693e-02,2.66
-1.690e-02,2.66
-1.686e-02,2.62
-1.683e-02,2.58
-1.680e-02,2.58
-1.677e-02,2.54
-1.674e-02,2.54
-1.670e-02,2.5
-1.667e-02,2.46
-1.664e-02,2.46
-1.661e-02,2.42
-1.658e-02,2.38
-1.654e-02,2.34
-1.651e-02,2.34
-1.648e-02,2.3
-1.645e-02,2.26
-1.642e-02,2.22
-1.638e-02,2.18
-1.635e-02,2.14
-1.632e-02,2.1
-1.629e-02,2.06
-1.626e-02,2.02
-1.622e-02,1.98
-1.619e-02,1.94
-1.616e-02,1.9
-1.613e-02,1.86
-1.610e-02,1.82
-1.606e-02,1.78
-1.603e-02,1.7
-1.600e-02,1.66
-1.597e-02,1.62
-1.594e-02,1.58
-1.590e-02,1.54
-1.587e-02,1.5
-1.584e-02,1.46
-1.581e-02,1.38
-1.578e-02,1.34
-1.574e-02,1.3
-1.571e-02,1.26
-1.568e-02,1.18
-1.565e-02,1.14
-1.562e-02,1.1
-1.558e-02,1.02
-1.555e-02,0.98
-1.552e-02,0.94
-1.549e-02,0.86
-1.546e-02,0.82
-1.542e-02,0.74
-1.539e-02,0.74
-1.536e-02,0.66
-1.533e-02,0.62
-1.530e-02,0.54
-1.526e-02,0.5
-1.523e-02,0.42
-1.520e-02,0.38
-1.517e-02,0.34
-1.514e-02,0.3
-1.510e-02,0.22
-1.507e-02,0.18
-1.504e-02,0.1
-1.501e-02,0.06
-1.498e-02,-0.02
-1.494e-02,-0.06
-1.491e-02,-0.14
-1.488e-02,-0.18
-1.485e-02,-0.22
-1.482e-02,-0.3
-1.478e-02,-0.34
-1.475e-02,-0.42
-1.472e-02,-0.46
-1.469e-02,-0.5
-1.466e-02,-0.58
-1.462e-02,-0.62
-1.459e-02,-0.7
-1.456e-02,-0.74
-1.453e-02,-0.78
-1.450e-02,-0.86
-1.446e-02,-0.9
-1.443e-02,-0.94
-1.440e-02,-1.02
-1.437e-02,-1.06
-1.434e-02,-1.1
-1.430e-02,-1.18
-1.427e-02,-1.22
-1.424e-02,-1.26
-1.421e-02,-1.34
-1.418e-02,-1.38
-1.414e-02,-1.42
-1.411e-02,-1.46
-1.408e-02,-1.5
-1.405e-02,-1.58
-1.402e-02,-1.62
-1.398e-02,-1.66
-1.395e-02,-1.7
-1.392e-02,-1.78
-1.389e-02,-1.82
-1.386e-02,-1.82
-1.382e-02,-1.9
-1.379e-02,-1.94
-1.376e-02,-1.98
-1.373e-02,-2.02
-1.370e-02,-2.06
-1.366e-02,-2.1
-1.363e-02,-2.14
-1.360e-02,-2.18
-1.357e-02,-2.22
-1.354e-02,-2.26
-1.350e-02,-2.3
-1.347e-02,-2.3
-1.344e-02,-2.34
-1.341e-02,-2.38
-1.338e-02,-2.42
-1.334e-02,-2.46
-1.331e-02,-2.46
-1.328e-02,-2.5
-1.325e-02,-2.54
-1.322e-02,-2.58
-1.318e-02,-2.58
-1.315e-02,-2.62
-1.312e-02,-2.66
-1.309e-02,-2.66
-1.306e-02,-2.7
-1.302e-02,-2.74
-1.299e-02,-2.74
-1.296e-02,-2.78
-1.293e-02,-2.82
-1.290e-02,-2.82
-1.286e-02,-2.82
-1.283e-02,-2.86
-1.280e-02,-2.86
-1.277e-02,-2.86
-1.274e-02,-2.86
-1.270e-02,-2.9
-1.267e-02,-2.9
-1.264e-02,-2.9
-1.261e-02,-2.9
-1.258e-02,-2.94
-1.254e-02,-2.94
-1.251e-02,-2.94
-1.248e-02,-2.94
-1.245e-02,-2.94
-1.242e-02,-2.94
-1.238e-02,-2.94
-1.235e-02,-2.94
-1.232e-02,-2.94
-1.229e-02,-2.9
-1.226e-02,-2.9
-1.222e-02,-2.86
-1.219e-02,-2.86
-1.216e-02,-2.86
-1.213e-02,-2.86
-1.210e-02,-2.82
-1.206e-02,-2.82
-1.203e-02,-2.78
-1.200e-02,-2.78
-1.197e-02,-2.74
-1.194e-02,-2.7
-1.190e-02,-2.7
-1.187e-02,-2.66
-1.184e-02,-2.66
-1.181e-02,-2.62
-1.178e-02,-2.58
-1.174e-02,-2.54
-1.171e-02,-2.54
-1.168e-02,-2.5
-1.165e-02,-2.46
-1.162e-02,-2.42
-1.158e-02,-2.42
-1.155e-02,-2.38
-1.152e-02,-2.34
-1.149e-02,-2.3
-1.146e-02,-2.26
-1.142e-02,-2.22
-1.139e-02,-2.18
-1.136e-02,-2.18
-1.133e-02,-2.1
-1.130e-02,-2.06
-1.126e-02,-2.02
-1.123e-02,-1.98
-1.120e-02,-1.94
-1.117e-02,-1.9
-1.114e-02,-1.86
-1.110e-02,-1.82
-1.107e-02,-1.78
-1.104e-02,-1.74
-1.101e-02,-1.66
-1.098e-02,-1.66
-1.094e-02,-1.58
-1.091e-02,-1.54
-1.088e-02,-1.5
-1.085e-02,-1.46
-1.082e-02,-1.38
-1.078e-02,-1.34
-1.075e-02,-1.3
-1.072e-02,-1.26
-1.069e-02,-1.18
-1.066e-02,-1.14
-1.062e-02,-1.1
-1.059e-02,-1.06
-1.056e-02,-0.98
-1.053e-02,-0.94
-1.050e-02,-0.86
-1.046e-02,-0.82
-1.043e-02,-0.78
-1.040e-02,-0.7
-1.037e-02,-0.66
-1.034e-02,-0.58
-1.030e-02,-0.54
-1.027e-02,-0.5
-1.024e-02,-0.42
-1.021e-02,-0.38
-1.018e-02,-0.3
-1.014e-02,-0.26
-1.011e-02,-0.22
-1.008e-02,-0.14
-1.005e-02,-0.1
-1.002e-02,-0.02
-9.984e-03,0.02
-9.952e-03,0.1
-9.920e-03,0.14
-9.888e-03,0.18
-9.856e-03,0.22
-9.824e-03,0.3
-9.792e-03,0.34
-9.760e-03,0.42
-9.728e-03,0.46
-9.696e-03,0.5
-9.664e-03,0.58
-9.632e-03,0.62
-9.600e-03,0.7
-9.568e-03,0.74
-9.536e-03,0.78
-9.504e-03,0.82
-9.472e-03,0.9
-9.440e-03,0.98
-9.408e-03,1.02
-9.376e-03,1.06
-9.344e-03,1.1
-9.312e-03,1.18
-9.280e-03,1.22
-9.248e-03,1.26
-9.216e-03,1.3
-9.184e-03,1.38
-9.152e-03,1.42
-9.120e-03,1.46
-9.088e-03,1.54
-9.056e-03,1.54
-9.024e-03,1.62
-8.992e-03,1.66
-8.960e-03,1.7
-8.928e-03,1.74
-8.896e-03,1.78
-8.864e-03,1.82
-8.832e-03,1.86
-8.800e-03,1.9
-8.768e-03,1.98
-8.736e-03,2.02
-8.704e-03,2.02
-8.672e-03,2.1
-8.640e-03,2.1
-8.608e-03,2.14
-8.576e-03,2.18
-8.544e-03,2.22
-8.512e-03,2.26
-8.480e-03,2.3
-8.448e-03,2.34
-8.416e-03,2.38
-8.384e-03,2.42
-8.352e-03,2.42
-8.320e-03,2.46
-8.288e-03,2.46
-8.256e-03,2.5
-8.224e-03,2.54
-8.192e-03,2.54
-8.160e-03,2.62
-8.128e-03,2.62
-8.096e-03,2.62
-8.064e-03,2.66
-8.032e-03,2.66
-8.000e-03,2.7
-7.968e-03,2.7
-7.936e-03,2.74
-7.904e-03,2.74
-7.872e-03,2.74
-7.840e-03,2.78
-7.808e-03,2.78
-7.776e-03,2.82
-7.744e-03,2.78
-7.712e-03,2.82
-7.680e-03,2.82
-7.648e-03,2.82
-7.616e-03,2.82
-7.584e-03,2.82
-7.552e-03,2.82
-7.520e-03,2.86
-7.488e-03,2.82
-7.456e-03,2.82
-7.424e-03,2.86
-7.392e-03,2.86
-7.360e-03,2.82
-7.328e-03,2.82
-7.296e-03,2.82
-7.264e-03,2.82
-7.232e-03,2.82
-7.200e-03,2.78
-7.168e-03,2.78
-7.136e-03,2.78
-7.104e-03,2.74
-7.072e-03,2.74
-7.040e-03,2.74
-7.008e-03,2.74
-6.976e-03,2.7
-6.944e-03,2.7
-6.912e-03,2.66
-6.880e-03,2.62
-6.848e-03,2.62
-6.816e-03,2.62
-6.784e-03,2.58
-6.752e-03,2.54
-6.720e-03,2.5
-6.688e-03,2.5
-6.656e-03,2.46
-6.624e-03,2.42
-6.592e-03,2.38
-6.560e-03,2.38
-6.528e-03,2.34
-6.496e-03,2.3
-6.464e-03,2.26
-6.432e-03,2.22
-6.400e-03,2.22
-6.368e-03,2.18
-6.336e-03,2.14
-6.304e-03,2.1
-6.272e-03,2.06
-6.240e-03,2.02
-6.208e-03,1.98
-6.176e-03,1.94
-6.144e-03,1.9
-6.112e-03,1.86
-6.080e-03,1.78
-6.048e-03,1.74
-6.016e-03,1.7
-5.984e-03,1.66
-5.952e-03,1.62
-5.920e-03,1.58
-5.888e-03,1.5
-5.856e-03,1.46
-5.824e-03,1.42
-5.792e-03,1.38
-5.760e-03,1.34
-5.728e-03,1.26
-5.696e-03,1.22
-5.664e-03,1.14
-5.632e-03,1.1
-5.600e-03,1.06
-5.568e-03,1.02
-5.536e-03,0.98
-5.504e-03,0.9
-5.472e-03,0.86
-5.440e-03,0.78
-5.408e-03,0.74
-5.376e-03,0.7
-5.344e-03,0.66
-5.312e-03,0.58
-5.280e-03,0.54
-5.248e-03,0.5
-5.216e-03,0.42
-5.184e-03,0.34
-5.152e-03,0.3
-5.120e-03,0.26
-5.088e-03,0.18
-5.056e-03,0.14
-5.024e-03,0.06
-4.992e-03,0.02
-4.960e-03,-0.06
-4.928e-03,-0.1
-4.896e-03,-0.14
-4.864e-03,-0.22
-4.832e-03,-0.26
-4.800e-03,-0.3
-4.768e-03,-0.38
-4.736e-03,-0.42
-4.704e-03,-0.5
-4.672e-03,-0.54
-4.640e-03,-0.58
-4.608e-03,-0.66
-4.576e-03,-0.7
-4.544e-03,-0.78
-4.512e-03,-0.82
-4.480e-03,-0.86
-4.448e-03,-0.94
-4.416e-03,-0.98
-4.384e-03,-1.06
-4.352e-03,-1.06
-4.320e-03,-1.14
-4.288e-03,-1.18
-4.256e-03,-1.22
-4.224e-03,-1.3
-4.192e-03,-1.34
-4.160e-03,-1.38
-4.128e-03,-1.46
-4.096e-03,-1.5
-4.064e-03,-1.54
-4.032e-03,-1.58
-4.000e-03,-1.66
-3.968e-03,-1.7
-3.936e-03,-1.74
-3.904e-03,-1.78
-3.872e-03,-1.82
-3.840e-03,-1.86
-3.808e-03,-1.9
-3.776e-03,-1.94
-3.744e-03,-1.98
-3.712e-03,-2.06
-3.680e-03,-2.06
-3.648e-03,-2.1
-3.616e-03,-2.14
-3.584e-03,-2.18
-3.552e-03,-2.22
-3.520e-03,-2.26
-3.488e-03,-2.3
-3.456e-03,-2.34
-3.424e-03,-2.38
-3.392e-03,-2.42
-3.360e-03,-2.42
-3.328e-03,-2.46
-3.296e-03,-2.5
-3.264e-03,-2.54
-3.232e-03,-2.54
-3.200e-03,-2.58
-3.168e-03,-2.62
-3.136e-03,-2.62
-3.104e-03,-2.66
-3.072e-03,-2.7
-3.040e-03,-2.7
-3.008e-03,-2.78
-2.976e-03,-2.78
-2.944e-03,-2.78
-2.912e-03,-2.82
-2.880e-03,-2.82
-2.848e-03,-2.86
-2.816e-03,-2.86
-2.784e-03,-2.9
-2.752e-03,-2.9
-2.720e-03,-2.9
-2.688e-03,-2.9
-2.656e-03,-2.9
-2.624e-03,-2.94
-2.592e-03,-2.94
-2.560e-03,-2.94
-2.528e-03,-2.94
-2.496e-03,-2.94
-2.464e-03,-2.94
-2.432e-03,-2.94
-2.400e-03,-2.94
-2.368e-03,-2.94
-2.336e-03,-2.9
-2.304e-03,-2.9
-2.272e-03,-2.9
-2.240e-03,-2.9
-2.208e-03,-2.86
-2.176e-03,-2.86
-2.144e-03,-2.86
-2.112e-03,-2.86
-2.080e-03,-2.82
-2.048e-03,-2.82
-2.016e-03,-2.78
-1.984e-03,-2.74
-1.952e-03,-2.7
-1.920e-03,-2.7
-1.888e-03,-2.7
-1.856e-03,-2.66
-1.824e-03,-2.62
-1.792e-03,-2.62
-1.760e-03,-2.58
-1.728e-03,-2.54
-1.696e-03,-2.5
-1.664e-03,-2.46
-1.632e-03,-2.46
-1.600e-03,-2.42
-1.568e-03,-2.38
-1.536e-03,-2.34
-1.504e-03,-2.3
-1.472e-03,-2.3
-1.440e-03,-2.26
-1.408e-03,-2.18
-1.376e-03,-2.18
-1.344e-03,-2.14
-1.312e-03,-2.1
-1.280e-03,-2.06
-1.248e-03,-2.02
-1.216e-03,-1.98
-1.184e-03,-1.94
-1.152e-03,-1.9
-1.120e-03,-1.82
-1.088e-03,-1.78
-1.056e-03,-1.78
-1.024e-03,-1.7
-9.920e-04,-1.66
-9.600e-04,-1.62
-9.280e-04,-1.58
-8.960e-04,-1.5
-8.640e-04,-1.46
-8.320e-04,-1.42
-8.000e-04,-1.38
-7.680e-04,-1.34
-7.360e-04,-1.3
-7.040e-04,-1.22
-6.720e-04,-1.18
-6.400e-04,-1.1
-6.080e-04,-1.06
-5.760e-04,-1.02
-5.440e-04,-0.94
-5.120e-04,-0.9
-4.800e-04,-0.86
-4.480e-04,-0.82
-4.160e-04,-0.74
-3.840e-04,-0.7
-3.520e-04,-0.66
-3.200e-04,-0.58
-2.880e-04,-0.54
-2.560e-04,-0.46
-2.240e-04,-0.42
-1.920e-04,-0.34
-1.600e-04,-0.3
-1.280e-04,-0.26
-9.600e-05,-0.18
-6.400e-05,-0.14
-3.200e-05,-0.06
4.880e-16,-0.02
3.200e-05,0.06
6.400e-05,0.1
9.600e-05,0.14
1.280e-04,0.22
1.600e-04,0.26
1.920e-04,0.34
2.240e-04,0.38
2.560e-04,0.46
2.880e-04,0.5
3.200e-04,0.54
3.520e-04,0.58
3.840e-04,0.66
4.160e-04,0.74
4.480e-04,0.78
4.800e-04,0.82
5.120e-04,0.86
5.440e-04,0.94
5.760e-04,0.98
6.080e-04,1.02
6.400e-04,1.1
6.720e-04,1.14
7.040e-04,1.18
7.360e-04,1.26
7.680e-04,1.26
8.000e-04,1.34
8.320e-04,1.38
8.640e-04,1.42
8.960e-04,1.5
9.280e-04,1.54
9.600e-04,1.58
9.920e-04,1.62
1.024e-03,1.7
1.056e-03,1.74
1.088e-03,1.78
1.120e-03,1.82
1.152e-03,1.86
1.184e-03,1.9
1.216e-03,1.94
1.248e-03,1.98
1.280e-03,2.02
1.312e-03,2.06
1.344e-03,2.1
1.376e-03,2.14
1.408e-03,2.18
1.440e-03,2.22
1.472e-03,2.26
1.504e-03,2.3
1.536e-03,2.34
1.568e-03,2.34
1.600e-03,2.38
1.632e-03,2.42
1.664e-03,2.46
1.696e-03,2.5
1.728e-03,2.5
1.760e-03,2.54
1.792e-03,2.54
1.824e-03,2.58
1.856e-03,2.62
1.888e-03,2.62
1.920e-03,2.66
1.952e-03,2.66
1.984e-03,2.7
2.016e-03,2.7
2.048e-03,2.7
2.080e-03,2.74
2.112e-03,2.74
2.144e-03,2.74
2.176e-03,2.78
2.208e-03,2.78
2.240e-03,2.82
2.272e-03,2.82
2.304e-03,2.82
2.336e-03,2.82
2.368e-03,2.82
2.400e-03,2.82
2.432e-03,2.86
2.464e-03,2.86
2.496e-03,2.86
2.528e-03,2.82
2.560e-03,2.86
2.592e-03,2.82
2.624e-03,2.82
2.656e-03,2.82
2.688e-03,2.82
2.720e-03,2.82
2.752e-03,2.82
2.784e-03,2.82
2.816e-03,2.78
2.848e-03,2.78
2.880e-03,2.78
2.912e-03,2.74
2.944e-03,2.74
2.976e-03,2.74
3.008e-03,2.7
3.040e-03,2.7
3.072e-03,2.7
3.104e-03,2.62
3.136e-03,2.62
3.168e-03,2.62
3.200e-03,2.58
3.232e-03,2.58
3.264e-03,2.54
3.296e-03,2.5
3.328e-03,2.5
3.360e-03,2.42
3.392e-03,2.42
3.424e-03,2.38
3.456e-03,2.34
3.488e-03,2.3
3.520e-03,2.3
3.552e-03,2.26
3.584e-03,2.22
3.616e-03,2.18
3.648e-03,2.1
3.680e-03,2.1
3.712e-03,2.06
3.744e-03,2.02
3.776e-03,1.98
3.808e-03,1.94
3.840e-03,1.9
3.872e-03,1.86
3.904e-03,1.82
3.936e-03,1.78
3.968e-03,1.74
4.000e-03,1.7
4.032e-03,1.62
4.064e-03,1.58
4.096e-03,1.54
4.128e-03,1.5
4.160e-03,1.42
4.192e-03,1.38
4.224e-03,1.34
4.256e-03,1.3
4.288e-03,1.22
4.320e-03,1.18
4.352e-03,1.14
4.384e-03,1.1
4.416e-03,1.06
4.448e-03,0.98
4.480e-03,0.94
4.512e-03,0.9
4.544e-03,0.82
4.576e-03,0.78
4.608e-03,0.7
4.640e-03,0.66
4.672e-03,0.62
4.704e-03,0.54
4.736e-03,0.5
4.768e-03,0.46
4.800e-03,0.38
4.832e-03,0.34
4.864e-03,0.26
4.896e-03,0.22
4.928e-03,0.18
4.960e-03,0.1
4.992e-03,0.06
5.024e-03,0.02
5.056e-03,-0.06
5.088e-03,-0.14
5.120e-03,-0.18
5.152e-03,-0.22
5.184e-03,-0.26
5.216e-03,-0.34
5.248e-03,-0.38
5.280e-03,-0.46
5.312e-03,-0.5
5.344e-03,-0.58
5.376e-03,-0.62
5.408e-03,-0.7
5.440e-03,-0.74
5.472e-03,-0.78
5.504e-03,-0.86
5.536e-03,-0.9
5.568e-03,-0.98
5.600e-03,-1.02
5.632e-03,-1.06
5.664e-03,-1.1
5.696e-03,-1.18
5.728e-03,-1.22
5.760e-03,-1.26
5.792e-03,-1.3
5.824e-03,-1.38
5.856e-03,-1.42
5.888e-03,-1.46
5.920e-03,-1.54
5.952e-03,-1.58
5.984e-03,-1.62
6.016e-03,-1.66
6.048e-03,-1.7
6.080e-03,-1.74
6.112e-03,-1.78
6.144e-03,-1.86
6.176e-03,-1.9
6.208e-03,-1.94
6.240e-03,-1.98
6.272e-03,-2.02
6.304e-03,-2.06
6.336e-03,-2.1
6.368e-03,-2.14
6.400e-03,-2.18
6.432e-03,-2.22
6.464e-03,-2.26
6.496e-03,-2.26
6.528e-03,-2.3
6.560e-03,-2.34
6.592e-03,-2.38
6.624e-03,-2.42
6.656e-03,-2.46
6.688e-03,-2.46
6.720e-03,-2.54
6.752e-03,-2.54
6.784e-03,-2.58
6.816e-03,-2.62
6.848e-03,-2.62
6.880e-03,-2.66
6.912e-03,-2.7
6.944e-03,-2.7
6.976e-03,-2.7
7.008e-03,-2.74
7.040e-03,-2.78
7.072e-03,-2.78
