data2/4-2_yugami_ari_output.CSV

Model,TBS1052C
Firmware Version,v2015-08-04-prequal4ch70_v1.3

Point Format,Y
Horizontal Units,S
Horizontal Scale,0.004
Sample Interval,3.2e-05
Filter Frequency,2e+08
Record Length,2000
Gating,0.0% to 100.0%
Probe Attenuation,10
Vertical Units,V
Vertical Offset,0
Vertical Scale,1
Label,
TIME,CH1
-3.200e-02,-3.36
-3.197e-02,-3.36
-3.194e-02,-3.32
-3.190e-02,-3.32
-3.187e-02,-3.24
-3.184e-02,-3.24
-3.181e-02,-3.2
-3.178e-02,-3.12
-3.174e-02,-3.12
-3.171e-02,-3.08
-3.168e-02,-3
-3.165e-02,-2.96
-3.162e-02,-2.96
-3.158e-02,-2.88
-3.155e-02,-2.84
-3.152e-02,-2.8
-3.149e-02,-2.76
-3.146e-02,-2.68
-3.142e-02,-2.64
-3.139e-02,-2.6
-3.136e-02,-2.52
-3.133e-02,-2.48
-3.130e-02,-2.44
-3.126e-02,-2.4
-3.123e-02,-2.32
-3.120e-02,-2.28
-3.117e-02,-2.24
-3.114e-02,-2.16
-3.110e-02,-2.12
-3.107e-02,-2.04
-3.104e-02,-2
-3.101e-02,-1.96
-3.098e-02,-1.88
-3.094e-02,-1.84
-3.091e-02,-1.8
-3.088e-02,-1.72
-3.085e-02,-1.64
-3.082e-02,-1.6
-3.078e-02,-1.56
-3.075e-02,-1.48
-3.072e-02,-1.44
-3.069e-02,-1.36
-3.066e-02,-1.32
-3.062e-02,-1.24
-3.059e-02,-1.16
-3.056e-02,-1.12
-3.053e-02,-1.08
-3.050e-02,-1
-3.046e-02,-0.92
-3.043e-02,-0.88
-3.040e-02,-0.8
-3.037e-02,-0.76
-3.034e-02,-0.68
-3.030e-02,-0.6
-3.027e-02,-0.56
-3.024e-02,-0.48
-3.021e-02,-0.4
-3.018e-02,-0.32
-3.014e-02,-0.28
-3.011e-02,-0.2
-3.008e-02,-0.16
-3.005e-02,-0.08
-3.002e-02,0
-2.998e-02,0.04
-2.995e-02,0.12
-2.992e-02,0.2
-2.989e-02,0.28
-2.986e-02,0.32
-2.982e-02,0.4
-2.979e-02,0.44
-2.976e-02,0.52
-2.973e-02,0.56
-2.970e-02,0.64
-2.966e-02,0.72
-2.963e-02,0.8
-2.960e-02,0.84
-2.957e-02,0.92
-2.954e-02,0.96
-2.950e-02,1.04
-2.947e-02,1.12
-2.944e-02,1.16
-2.941e-02,1.24
-2.938e-02,1.28
-2.934e-02,1.36
-2.931e-02,1.4
-2.928e-02,1.44
-2.925e-02,1.52
-2.922e-02,1.6
-2.918e-02,1.64
-2.915e-02,1.68
-2.912e-02,1.76
-2.909e-02,1.84
-2.906e-02,1.88
-2.902e-02,1.92
-2.899e-02,2
-2.896e-02,2.04
-2.893e-02,2.08
-2.890e-02,2.12
-2.886e-02,2.2
-2.883e-02,2.24
-2.880e-02,2.28
-2.877e-02,2.36
-2.874e-02,2.4
-2.870e-02,2.44
-2.867e-02,2.48
-2.864e-02,2.52
-2.861e-02,2.56
-2.858e-02,2.6
-2.854e-02,2.68
-2.851e-02,2.68
-2.848e-02,2.72
-2.845e-02,2.76
-2.842e-02,2.8
-2.838e-02,2.84
-2.835e-02,2.88
-2.832e-02,2.92
-2.829e-02,2.96
-2.826e-02,2.96
-2.822e-02,3
-2.819e-02,3.04
-2.816e-02,3.08
-2.813e-02,3.08
-2.810e-02,3.12
-2.806e-02,3.12
-2.803e-02,3.16
-2.800e-02,3.16
-2.797e-02,3.2
-2.794e-02,3.2
-2.790e-02,3.2
-2.787e-02,3.24
-2.784e-02,3.28
-2.781e-02,3.28
-2.778e-02,3.28
-2.774e-02,3.28
-2.771e-02,3.32
-2.768e-02,3.32
-2.765e-02,3.32
-2.762e-02,3.32
-2.758e-02,3.32
-2.755e-02,3.32
-2.752e-02,3.32
-2.749e-02,3.36
-2.746e-02,3.32
-2.742e-02,3.32
-2.739e-02,3.32
-2.736e-02,3.32
-2.733e-02,3.32
-2.730e-02,3.32
-2.726e-02,3.32
-2.723e-02,3.28
-2.720e-02,3.28
-2.717e-02,3.24
-2.714e-02,3.24
-2.710e-02,3.2
-2.707e-02,3.2
-2.704e-02,3.2
-2.701e-02,3.16
-2.698e-02,3.16
-2.694e-02,3.12
-2.691e-02,3.08
-2.688e-02,3.04
-2.685e-02,3.04
-2.682e-02,3
-2.678e-02,3
-2.675e-02,2.96
-2.672e-02,2.92
-2.669e-02,2.88
-2.666e-02,2.88
-2.662e-02,2.8
-2.659e-02,2.8
-2.656e-02,2.76
-2.653e-02,2.72
-2.650e-02,2.68
-2.646e-02,2.64
-2.643e-02,2.6
-2.640e-02,2.56
-2.637e-02,2.52
-2.634e-02,2.44
-2.630e-02,2.44
-2.627e-02,2.4
-2.624e-02,2.32
-2.621e-02,2.28
-2.618e-02,2.24
-2.614e-02,2.2
-2.611e-02,2.12
-2.608e-02,2.08
-2.605e-02,2.04
-2.602e-02,1.96
-2.598e-02,1.92
-2.595e-02,1.88
-2.592e-02,1.8
-2.589e-02,1.72
-2.586e-02,1.68
-2.582e-02,1.64
-2.579e-02,1.56
-2.576e-02,1.52
-2.573e-02,1.44
-2.570e-02,1.4
-2.566e-02,1.32
-2.563e-02,1.28
-2.560e-02,1.2
-2.557e-02,1.12
-2.554e-02,1.08
-2.550e-02,1
-2.547e-02,0.96
-2.544e-02,0.88
-2.541e-02,0.84
-2.538e-02,0.76
-2.534e-02,0.68
-2.531e-02,0.64
-2.528e-02,0.56
-2.525e-02,0.52
-2.522e-02,0.44
-2.518e-02,0.36
-2.515e-02,0.32
-2.512e-02,0.24
-2.509e-02,0.2
-2.506e-02,0.12
-2.502e-02,0.04
-2.499e-02,-0.04
-2.496e-02,-0.12
-2.493e-02,-0.2
-2.490e-02,-0.24
-2.486e-02,-0.28
-2.483e-02,-0.36
-2.480e-02,-0.4
-2.477e-02,-0.48
-2.474e-02,-0.56
-2.470e-02,-0.64
-2.467e-02,-0.68
-2.464e-02,-0.76
-2.461e-02,-0.8
-2.458e-02,-0.88
-2.454e-02,-0.96
-2.451e-02,-1
-2.448e-02,-1.08
-2.445e-02,-1.16
-2.442e-02,-1.2
-2.438e-02,-1.24
-2.435e-02,-1.32
-2.432e-02,-1.4
-2.429e-02,-1.44
-2.426e-02,-1.52
-2.422e-02,-1.56
-2.419e-02,-1.64
-2.416e-02,-1.68
-2.413e-02,-1.76
-2.410e-02,-1.8
-2.406e-02,-1.88
-2.403e-02,-1.92
-2.400e-02,-1.96
-2.397e-02,-2.04
-2.394e-02,-2.08
-2.390e-02,-2.12
-2.387e-02,-2.2
-2.384e-02,-2.24
-2.381e-02,-2.32
-2.378e-02,-2.36
-2.374e-02,-2.4
-2.371e-02,-2.44
-2.368e-02,-2.52
-2.365e-02,-2.56
-2.362e-02,-2.6
-2.358e-02,-2.64
-2.355e-02,-2.72
-2.352e-02,-2.76
-2.349e-02,-2.8
-2.346e-02,-2.84
-2.342e-02,-2.88
-2.339e-02,-2.96
-2.336e-02,-3
-2.333e-02,-3.04
-2.330e-02,-3.08
-2.326e-02,-3.12
-2.323e-02,-3.16
-2.320e-02,-3.24
-2.317e-02,-3.24
-2.314e-02,-3.24
-2.310e-02,-3.32
-2.307e-02,-3.36
-2.304e-02,-3.36
-2.301e-02,-3.4
-2.298e-02,-3.4
-2.294e-02,-3.44
-2.291e-02,-3.44
-2.288e-02,-3.44
-2.285e-02,-3.48
-2.282e-02,-3.44
-2.278e-02,-3.44
-2.275e-02,-3.48
-2.272e-02,-3.48
-2.269e-02,-3.48
-2.266e-02,-3.48
-2.262e-02,-3.48
-2.259e-02,-3.48
-2.256e-02,-3.48
-2.253e-02,-3.48
-2.250e-02,-3.48
-2.246e-02,-3.48
-2.243e-02,-3.48
-2.240e-02,-3.48
-2.237e-02,-3.48
-2.234e-02,-3.48
-2.230e-02,-3.48
-2.227e-02,-3.48
-2.224e-02,-3.48
-2.221e-02,-3.48
-2.218e-02,-3.48
-2.214e-02,-3.44
-2.211e-02,-3.44
-2.208e-02,-3.44
-2.205e-02,-3.4
-2.202e-02,-3.4
-2.198e-02,-3.4
-2.195e-02,-3.32
-2.192e-02,-3.32
-2.189e-02,-3.28
-2.186e-02,-3.24
-2.182e-02,-3.2
-2.179e-02,-3.16
-2.176e-02,-3.12
-2.173e-02,-3.08
-2.170e-02,-3.04
-2.166e-02,-3
-2.163e-02,-2.96
-2.160e-02,-2.92
-2.157e-02,-2.84
-2.154e-02,-2.84
-2.150e-02,-2.76
-2.147e-02,-2.72
-2.144e-02,-2.68
-2.141e-02,-2.6
-2.138e-02,-2.56
-2.134e-02,-2.52
-2.131e-02,-2.48
-2.128e-02,-2.4
-2.125e-02,-2.36
-2.122e-02,-2.32
-2.118e-02,-2.24
-2.115e-02,-2.2
-2.112e-02,-2.16
-2.109e-02,-2.08
-2.106e-02,-2.04
-2.102e-02,-1.96
-2.099e-02,-1.92
-2.096e-02,-1.88
-2.093e-02,-1.8
-2.090e-02,-1.76
-2.086e-02,-1.68
-2.083e-02,-1.64
-2.080e-02,-1.56
-2.077e-02,-1.52
-2.074e-02,-1.44
-2.070e-02,-1.4
-2.067e-02,-1.32
-2.064e-02,-1.28
-2.061e-02,-1.2
-2.058e-02,-1.16
-2.054e-02,-1.08
-2.051e-02,-1
-2.048e-02,-0.96
-2.045e-02,-0.88
-2.042e-02,-0.84
-2.038e-02,-0.76
-2.035e-02,-0.72
-2.032e-02,-0.64
-2.029e-02,-0.56
-2.026e-02,-0.48
-2.022e-02,-0.44
-2.019e-02,-0.36
-2.016e-02,-0.28
-2.013e-02,-0.24
-2.010e-02,-0.16
-2.006e-02,-0.08
-2.003e-02,-0.04
-2.000e-02,0.04
-1.997e-02,0.08
-1.994e-02,0.16
-1.990e-02,0.24
-1.987e-02,0.32
-1.984e-02,0.36
-1.981e-02,0.44
-1.978e-02,0.48
-1.974e-02,0.56
-1.971e-02,0.64
-1.968e-02,0.68
-1.965e-02,0.76
-1.962e-02,0.8
-1.958e-02,0.88
-1.955e-02,0.96
-1.952e-02,1
-1.949e-02,1.08
-1.946e-02,1.12
-1.942e-02,1.2
-1.939e-02,1.28
-1.936e-02,1.32
-1.933e-02,1.4
-1.930e-02,1.44
-1.926e-02,1.52
-1.923e-02,1.56
-1.920e-02,1.64
-1.917e-02,1.68
-1.914e-02,1.72
-1.910e-02,1.8
-1.907e-02,1.84
-1.904e-02,1.92
-1.901e-02,1.96
-1.898e-02,2
-1.894e-02,2.08
-1.891e-02,2.12
-1.888e-02,2.16
-1.885e-02,2.24
-1.882e-02,2.28
-1.878e-02,2.32
-1.875e-02,2.36
-1.872e-02,2.4
-1.869e-02,2.48
-1.866e-02,2.52
-1.862e-02,2.56
-1.859e-02,2.6
-1.856e-02,2.64
-1.853e-02,2.68
-1.850e-02,2.72
-1.846e-02,2.76
-1.843e-02,2.8
-1.840e-02,2.84
-1.837e-02,2.84
-1.834e-02,2.88
-1.830e-02,2.92
-1.827e-02,2.96
-1.824e-02,3
-1.821e-02,3.04
-1.818e-02,3.04
-1.814e-02,3.08
-1.811e-02,3.08
-1.808e-02,3.12
-1.805e-02,3.12
-1.802e-02,3.16
-1.798e-02,3.2
-1.795e-02,3.2
-1.792e-02,3.2
-1.789e-02,3.24
-1.786e-02,3.24
-1.782e-02,3.28
-1.779e-02,3.28
-1.776e-02,3.28
-1.773e-02,3.28
-1.770e-02,3.32
-1.766e-02,3.28
-1.763e-02,3.32
-1.760e-02,3.32
-1.757e-02,3.32
-1.754e-02,3.32
-1.750e-02,3.32
-1.747e-02,3.32
-1.744e-02,3.32
-1.741e-02,3.32
-1.738e-02,3.32
-1.734e-02,3.32
-1.731e-02,3.28
-1.728e-02,3.28
-1.725e-02,3.28
-1.722e-02,3.28
-1.718e-02,3.24
-1.715e-02,3.24
-1.712e-02,3.2
-1.709e-02,3.2
-1.706e-02,3.16
-1.702e-02,3.16
-1.699e-02,3.16
-1.696e-02,3.12
-1.693e-02,3.12
-1.690e-02,3.08
-1.686e-02,3.04
-1.683e-02,3.04
-1.680e-02,3
-1.677e-02,2.96
-1.674e-02,2.96
-1.670e-02,2.92
-1.667e-02,2.88
-1.664e-02,2.84
-1.661e-02,2.8
-1.658e-02,2.76
-1.654e-02,2.72
-1.651e-02,2.68
-1.648e-02,2.68
-1.645e-02,2.6
-1.642e-02,2.56
-1.638e-02,2.52
-1.635e-02,2.48
-1.632e-02,2.44
-1.629e-02,2.4
-1.626e-02,2.36
-1.622e-02,2.28
-1.619e-02,2.28
-1.616e-02,2.2
-1.613e-02,2.16
-1.610e-02,2.08
-1.606e-02,2.04
-1.603e-02,2
-1.600e-02,1.92
-1.597e-02,1.88
-1.594e-02,1.8
-1.590e-02,1.76
-1.587e-02,1.72
-1.584e-02,1.64
-1.581e-02,1.6
-1.578e-02,1.52
-1.574e-02,1.48
-1.571e-02,1.4
-1.568e-02,1.36
-1.565e-02,1.28
-1.562e-02,1.24
-1.558e-02,1.16
-1.555e-02,1.08
-1.552e-02,1.04
-1.549e-02,0.96
-1.546e-02,0.92
-1.542e-02,0.84
-1.539e-02,0.76
-1.536e-02,0.72
-1.533e-02,0.64
-1.530e-02,0.6
-1.526e-02,0.52
-1.523e-02,0.48
-1.520e-02,0.4
-1.517e-02,0.32
-1.514e-02,0.28
-1.510e-02,0.2
-1.507e-02,0.16
-1.504e-02,0.08
-1.501e-02,0
-1.498e-02,-0.08
-1.494e-02,-0.16
-1.491e-02,-0.2
-1.488e-02,-0.28
-1.485e-02,-0.32
-1.482e-02,-0.4
-1.478e-02,-0.44
-1.475e-02,-0.52
-1.472e-02,-0.6
-1.469e-02,-0.68
-1.466e-02,-0.72
-1.462e-02,-0.8
-1.459e-02,-0.84
-1.456e-02,-0.92
-1.453e-02,-1
-1.450e-02,-1.04
-1.446e-02,-1.12
-1.443e-02,-1.2
-1.440e-02,-1.24
-1.437e-02,-1.32
-1.434e-02,-1.36
-1.430e-02,-1.44
-1.427e-02,-1.48
-1.424e-02,-1.52
-1.421e-02,-1.6
-1.418e-02,-1.68
-1.414e-02,-1.72
-1.411e-02,-1.76
-1.408e-02,-1.84
-1.405e-02,-1.88
-1.402e-02,-1.96
-1.398e-02,-2
-1.395e-02,-2.08
-1.392e-02,-2.12
-1.389e-02,-2.16
-1.386e-02,-2.2
-1.382e-02,-2.28
-1.379e-02,-2.32
-1.376e-02,-2.4
-1.373e-02,-2.44
-1.370e-02,-2.48
-1.366e-02,-2.52
-1.363e-02,-2.6
-1.360e-02,-2.64
-1.357e-02,-2.68
-1.354e-02,-2.72
-1.350e-02,-2.76
-1.347e-02,-2.84
-1.344e-02,-2.88
-1.341e-02,-2.96
-1.338e-02,-2.96
-1.334e-02,-3.04
-1.331e-02,-3.08
-1.328e-02,-3.12
-1.325e-02,-3.16
-1.322e-02,-3.2
-1.318e-02,-3.24
-1.315e-02,-3.28
-1.312e-02,-3.28
-1.309e-02,-3.32
-1.306e-02,-3.36
-1.302e-02,-3.4
-1.299e-02,-3.4
-1.296e-02,-3.44
-1.293e-02,-3.44
-1.290e-02,-3.44
-1.286e-02,-3.48
-1.283e-02,-3.44
-1.280e-02,-3.48
-1.277e-02,-3.48
-1.274e-02,-3.48
-1.270e-02,-3.48
-1.267e-02,-3.48
-1.264e-02,-3.48
-1.261e-02,-3.48
-1.258e-02,-3.48
-1.254e-02,-3.48
-1.251e-02,-3.48
-1.248e-02,-3.48
-1.245e-02,-3.48
-1.242e-02,-3.48
-1.238e-02,-3.48
-1.235e-02,-3.48
-1.232e-02,-3.48
-1.229e-02,-3.48
-1.226e-02,-3.48
-1.222e-02,-3.48
-1.219e-02,-3.44
-1.216e-02,-3.48
-1.213e-02,-3.44
-1.210e-02,-3.44
-1.206e-02,-3.44
-1.203e-02,-3.4
-1.200e-02,-3.4
-1.197e-02,-3.36
-1.194e-02,-3.32
-1.190e-02,-3.32
-1.187e-02,-3.24
-1.184e-02,-3.24
-1.181e-02,-3.2
-1.178e-02,-3.16
-1.174e-02,-3.12
-1.171e-02,-3.08
-1.168e-02,-3.04
-1.165e-02,-2.96
-1.162e-02,-2.96
-1.158e-02,-2.88
-1.155e-02,-2.84
-1.152e-02,-2.8
-1.149e-02,-2.76
-1.146e-02,-2.68
-1.142e-02,-2.64
-1.139e-02,-2.56
-1.136e-02,-2.52
-1.133e-02,-2.48
-1.130e-02,-2.44
-1.126e-02,-2.4
-1.123e-02,-2.36
-1.120e-02,-2.28
-1.117e-02,-2.24
-1.114e-02,-2.16
-1.110e-02,-2.12
-1.107e-02,-2.08
-1.104e-02,-2
-1.101e-02,-1.96
-1.098e-02,-1.88
-1.094e-02,-1.84
-1.091e-02,-1.8
-1.088e-02,-1.72
-1.085e-02,-1.64
-1.082e-02,-1.6
-1.078e-02,-1.56
-1.075e-02,-1.48
-1.072e-02,-1.44
-1.069e-02,-1.36
-1.066e-02,-1.32
-1.062e-02,-1.24
-1.059e-02,-1.2
-1.056e-02,-1.16
-1.053e-02,-1.08
-1.050e-02,-1
-1.046e-02,-0.92
-1.043e-02,-0.88
-1.040e-02,-0.8
-1.037e-02,-0.72
-1.034e-02,-0.64
-1.030e-02,-0.6
-1.027e-02,-0.52
-1.024e-02,-0.48
-1.021e-02,-0.4
-1.018e-02,-0.32
-1.014e-02,-0.28
-1.011e-02,-0.2
-1.008e-02,-0.12
-1.005e-02,-0.08
-1.002e-02,-0.04
-9.984e-03,0.04
-9.952e-03,0.12
-9.920e-03,0.2
-9.888e-03,0.28
-9.856e-03,0.32
-9.824e-03,0.4
-9.792e-03,0.44
-9.760e-03,0.52
-9.728e-03,0.6
-9.696e-03,0.64
-9.664e-03,0.72
-9.632e-03,0.8
-9.600e-03,0.84
-9.568e-03,0.92
-9.536e-03,1
-9.504e-03,1.04
-9.472e-03,1.08
-9.440e-03,1.16
-9.408e-03,1.24
-9.376e-03,1.28
-9.344e-03,1.36
-9.312e-03,1.4
-9.280e-03,1.48
-9.248e-03,1.56
-9.216e-03,1.6
-9.184e-03,1.64
-9.152e-03,1.72
-9.120e-03,1.76
-9.088e-03,1.84
-9.056e-03,1.88
-9.024e-03,1.92
-8.992e-03,2
-8.960e-03,2.04
-8.928e-03,2.08
-8.896e-03,2.16
-8.864e-03,2.2
-8.832e-03,2.24
-8.800e-03,2.32
-8.768e-03,2.36
-8.736e-03,2.4
-8.704e-03,2.44
-8.672e-03,2.48
-8.640e-03,2.52
-8.608e-03,2.6
-8.576e-03,2.64
-8.544e-03,2.68
-8.512e-03,2.72
-8.480e-03,2.76
-8.448e-03,2.8
-8.416e-03,2.8
-8.384e-03,2.88
-8.352e-03,2.88
-8.320e-03,2.92
-8.288e-03,2.96
-8.256e-03,3
-8.224e-03,3
-8.192e-03,3.04
-8.160e-03,3.08
-8.128e-03,3.12
-8.096e-03,3.12
-8.064e-03,3.12
-8.032e-03,3.16
-8.000e-03,3.2
-7.968e-03,3.2
-7.936e-03,3.24
-7.904e-03,3.24
-7.872e-03,3.24
-7.840e-03,3.28
-7.808e-03,3.28
-7.776e-03,3.32
-7.744e-03,3.32
-7.712e-03,3.32
-7.680e-03,3.36
-7.648e-03,3.32
-7.616e-03,3.32
-7.584e-03,3.36
-7.552e-03,3.36
-7.520e-03,3.36
-7.488e-03,3.32
-7.456e-03,3.36
-7.424e-03,3.32
-7.392e-03,3.36
-7.360e-03,3.32
-7.328e-03,3.32
-7.296e-03,3.32
-7.264e-03,3.28
-7.232e-03,3.28
-7.200e-03,3.28
-7.168e-03,3.28
-7.136e-03,3.24
-7.104e-03,3.24
-7.072e-03,3.2
-7.040e-03,3.2
-7.008e-03,3.2
-6.976e-03,3.16
-6.944e-03,3.12
-6.912e-03,3.12
-6.880e-03,3.08
-6.848e-03,3.08
-6.816e-03,3
-6.784e-03,3
-6.752e-03,2.96
-6.720e-03,2.96
-6.688e-03,2.92
-6.656e-03,2.88
-6.624e-03,2.84
-6.592e-03,2.8
-6.560e-03,2.76
-6.528e-03,2.72
-6.496e-03,2.68
-6.464e-03,2.64
-6.432e-03,2.6
-6.400e-03,2.56
-6.368e-03,2.52
-6.336e-03,2.48
-6.304e-03,2.44
-6.272e-03,2.36
-6.240e-03,2.32
-6.208e-03,2.28
-6.176e-03,2.24
-6.144e-03,2.2
-6.112e-03,2.12
-6.080e-03,2.08
-6.048e-03,2.04
-6.016e-03,1.96
-5.984e-03,1.92
-5.952e-03,1.88
-5.920e-03,1.8
-5.888e-03,1.76
-5.856e-03,1.68
-5.824e-03,1.64
-5.792e-03,1.56
-5.760e-03,1.52
-5.728e-03,1.44
-5.696e-03,1.4
-5.664e-03,1.36
-5.632e-03,1.28
-5.600e-03,1.2
-5.568e-03,1.12
-5.536e-03,1.08
-5.504e-03,1
-5.472e-03,0.96
-5.440e-03,0.88
-5.408e-03,0.84
-5.376e-03,0.76
-5.344e-03,0.72
-5.312e-03,0.64
-5.280e-03,0.56
-5.248e-03,0.48
-5.216e-03,0.44
-5.184e-03,0.4
-5.152e-03,0.32
-5.120e-03,0.24
-5.088e-03,0.16
-5.056e-03,0.08
-5.024e-03,0.04
-4.992e-03,-0.04
-4.960e-03,-0.08
-4.928e-03,-0.16
-4.896e-03,-0.24
-4.864e-03,-0.28
-4.832e-03,-0.36
-4.800e-03,-0.44
-4.768e-03,-0.48
-4.736e-03,-0.56
-4.704e-03,-0.64
-4.672e-03,-0.68
-4.640e-03,-0.76
-4.608e-03,-0.84
-4.576e-03,-0.88
-4.544e-03,-0.96
-4.512e-03,-1
-4.480e-03,-1.08
-4.448e-03,-1.16
-4.416e-03,-1.24
-4.384e-03,-1.28
-4.352e-03,-1.32
-4.320e-03,-1.4
-4.288e-03,-1.44
-4.256e-03,-1.52
-4.224e-03,-1.56
-4.192e-03,-1.64
-4.160e-03,-1.72
-4.128e-03,-1.76
-4.096e-03,-1.8
-4.064e-03,-1.88
-4.032e-03,-1.92
-4.000e-03,-2
-3.968e-03,-2.04
-3.936e-03,-2.08
-3.904e-03,-2.16
-3.872e-03,-2.2
-3.840e-03,-2.24
-3.808e-03,-2.32
-3.776e-03,-2.36
-3.744e-03,-2.4
-3.712e-03,-2.48
-3.680e-03,-2.52
-3.648e-03,-2.56
-3.616e-03,-2.6
-3.584e-03,-2.68
-3.552e-03,-2.72
-3.520e-03,-2.76
-3.488e-03,-2.84
-3.456e-03,-2.88
-3.424e-03,-2.92
-3.392e-03,-2.96
-3.360e-03,-3
-3.328e-03,-3.04
-3.296e-03,-3.12
-3.264e-03,-3.12
-3.232e-03,-3.16
-3.200e-03,-3.2
-3.168e-03,-3.24
-3.136e-03,-3.28
-3.104e-03,-3.32
-3.072e-03,-3.36
-3.040e-03,-3.4
-3.008e-03,-3.4
-2.976e-03,-3.44
-2.944e-03,-3.44
-2.912e-03,-3.48
-2.880e-03,-3.48
-2.848e-03,-3.48
-2.816e-03,-3.48
-2.784e-03,-3.48
-2.752e-03,-3.48
-2.720e-03,-3.48
-2.688e-03,-3.48
-2.656e-03,-3.48
-2.624e-03,-3.48
-2.592e-03,-3.48
-2.560e-03,-3.48
-2.528e-03,-3.48
-2.496e-03,-3.48
-2.464e-03,-3.48
-2.432e-03,-3.48
-2.400e-03,-3.52
-2.368e-03,-3.48
-2.336e-03,-3.48
-2.304e-03,-3.48
-2.272e-03,-3.48
-2.240e-03,-3.48
-2.208e-03,-3.48
-2.176e-03,-3.48
-2.144e-03,-3.48
-2.112e-03,-3.48
-2.080e-03,-3.44
-2.048e-03,-3.44
-2.016e-03,-3.4
-1.984e-03,-3.4
-1.952e-03,-3.36
-1.920e-03,-3.32
-1.888e-03,-3.28
-1.856e-03,-3.28
-1.824e-03,-3.24
-1.792e-03,-3.16
-1.760e-03,-3.16
-1.728e-03,-3.08
-1.696e-03,-3.04
-1.664e-03,-3
-1.632e-03,-2.96
-1.600e-03,-2.92
-1.568e-03,-2.88
-1.536e-03,-2.84
-1.504e-03,-2.76
-1.472e-03,-2.76
-1.440e-03,-2.68
-1.408e-03,-2.6
-1.376e-03,-2.56
-1.344e-03,-2.52
-1.312e-03,-2.44
-1.280e-03,-2.44
-1.248e-03,-2.36
-1.216e-03,-2.32
-1.184e-03,-2.24
-1.152e-03,-2.2
-1.120e-03,-2.16
-1.088e-03,-2.12
-1.056e-03,-2.04
-1.024e-03,-2
-9.920e-04,-1.92
-9.600e-04,-1.88
-9.280e-04,-1.8
-8.960e-04,-1.76
-8.640e-04,-1.72
-8.320e-04,-1.64
-8.000e-04,-1.56
-7.680e-04,-1.52
-7.360e-04,-1.48
-7.040e-04,-1.4
-6.720e-04,-1.36
-6.400e-04,-1.28
-6.080e-04,-1.2
-5.760e-04,-1.16
-5.440e-04,-1.08
-5.120e-04,-1.04
-4.800e-04,-0.96
-4.480e-04,-0.92
-4.160e-04,-0.84
-3.840e-04,-0.76
-3.520e-04,-0.72
-3.200e-04,-0.64
-2.880e-04,-0.56
-2.560e-04,-0.52
-2.240e-04,-0.44
-1.920e-04,-0.36
-1.600e-04,-0.32
-1.280e-04,-0.24
-9.600e-05,-0.16
-6.400e-05,-0.12
-3.200e-05,-0.04
4.880e-16,0.04
3.200e-05,0.08
6.400e-05,0.16
9.600e-05,0.24
1.280e-04,0.28
1.600e-04,0.36
1.920e-04,0.44
2.240e-04,0.48
2.560e-04,0.56
2.880e-04,0.6
3.200e-04,0.68
3.520e-04,0.76
3.840e-04,0.84
4.160e-04,0.88
4.480e-04,0.96
4.800e-04,1
5.120e-04,1.08
5.440e-04,1.12
5.760e-04,1.2
6.080e-04,1.24
6.400e-04,1.32
6.720e-04,1.36
7.040e-04,1.44
7.360e-04,1.52
7.680e-04,1.56
8.000e-04,1.6
8.320e-04,1.68
8.640e-04,1.72
8.960e-04,1.8
9.280e-04,1.84
9.600e-04,1.92
9.920e-04,1.96
1.024e-03,2
1.056e-03,2.08
1.088e-03,2.12
1.120e-03,2.16
1.152e-03,2.24
1.184e-03,2.28
1.216e-03,2.32
1.248e-03,2.36
1.280e-03,2.44
1.312e-03,2.48
1.344e-03,2.52
1.376e-03,2.56
1.408e-03,2.6
1.440e-03,2.64
1.472e-03,2.68
1.504e-03,2.72
1.536e-03,2.76
1.568e-03,2.8
1.600e-03,2.84
1.632e-03,2.88
1.664e-03,2.92
1.696e-03,2.92
1.728e-03,2.96
1.760e-03,3
1.792e-03,3.04
1.824e-03,3.04
1.856e-03,3.08
1.888e-03,3.12
1.920e-03,3.12
1.952e-03,3.12
1.984e-03,3.16
2.016e-03,3.2
2.048e-03,3.2
2.080e-03,3.24
2.112e-03,3.24
2.144e-03,3.24
2.176e-03,3.28
2.208e-03,3.28
2.240e-03,3.28
2.272e-03,3.32
2.304e-03,3.32
2.336e-03,3.32
2.368e-03,3.32
2.400e-03,3.32
2.432e-03,3.32
2.464e-03,3.32
2.496e-03,3.32
2.528e-03,3.32
2.560e-03,3.36
2.592e-03,3.32
2.624e-03,3.32
2.656e-03,3.32
2.688e-03,3.28
2.720e-03,3.32
2.752e-03,3.32
2.784e-03,3.28
2.816e-03,3.28
2.848e-03,3.28
2.880e-03,3.24
2.912e-03,3.24
2.944e-03,3.2
2.976e-03,3.16
3.008e-03,3.16
3.040e-03,3.16
3.072e-03,3.12
3.104e-03,3.08
3.136e-03,3.08
3.168e-03,3.04
3.200e-03,3
3.232e-03,3
3.264e-03,2.96
3.296e-03,2.92
3.328e-03,2.92
3.360e-03,2.84
3.392e-03,2.84
3.424e-03,2.8
3.456e-03,2.76
3.488e-03,2.72
3.520e-03,2.68
3.552e-03,2.64
3.584e-03,2.6
3.616e-03,2.56
3.648e-03,2.52
3.680e-03,2.48
3.712e-03,2.4
3.744e-03,2.36
3.776e-03,2.32
3.808e-03,2.24
3.840e-03,2.24
3.872e-03,2.16
3.904e-03,2.12
3.936e-03,2.04
3.968e-03,2
4.000e-03,1.96
4.032e-03,1.88
4.064e-03,1.84
4.096e-03,1.76
4.128e-03,1.72
4.160e-03,1.64
4.192e-03,1.6
4.224e-03,1.56
4.256e-03,1.48
4.288e-03,1.44
4.320e-03,1.36
4.352e-03,1.32
4.384e-03,1.24
4.416e-03,1.16
4.448e-03,1.08
4.480e-03,1.04
4.512e-03,1
4.544e-03,0.92
4.576e-03,0.84
4.608e-03,0.8
4.640e-03,0.72
4.672e-03,0.68
4.704e-03,0.6
4.736e-03,0.52
4.768e-03,0.48
4.800e-03,0.4
4.832e-03,0.36
4.864e-03,0.28
4.896e-03,0.2
4.928e-03,0.12
4.960e-03,0.08
4.992e-03,0
5.024e-03,-0.08
5.056e-03,-0.12
5.088e-03,-0.2
5.120e-03,-0.24
5.152e-03,-0.32
5.184e-03,-0.4
5.216e-03,-0.44
5.248e-03,-0.52
5.280e-03,-0.6
5.312e-03,-0.68
5.344e-03,-0.72
5.376e-03,-0.8
5.408e-03,-0.88
5.440e-03,-0.92
5.472e-03,-0.96
5.504e-03,-1.04
5.536e-03,-1.12
5.568e-03,-1.16
5.600e-03,-1.24
5.632e-03,-1.28
5.664e-03,-1.36
5.696e-03,-1.4
5.728e-03,-1.48
5.760e-03,-1.56
5.792e-03,-1.6
5.824e-03,-1.64
5.856e-03,-1.72
5.888e-03,-1.8
5.920e-03,-1.84
5.952e-03,-1.92
5.984e-03,-1.96
6.016e-03,-2
6.048e-03,-2.08
6.080e-03,-2.12
6.112e-03,-2.16
6.144e-03,-2.24
6.176e-03,-2.28
6.208e-03,-2.32
6.240e-03,-2.4
6.272e-03,-2.4
6.304e-03,-2.52
6.336e-03,-2.52
6.368e-03,-2.6
6.400e-03,-2.64
6.432e-03,-2.68
6.464e-03,-2.72
6.496e-03,-2.8
6.528e-03,-2.84
6.560e-03,-2.88
6.592e-03,-2.92
6.624e-03,-3
6.656e-03,-3.04
6.688e-03,-3.08
6.720e-03,-3.12
6.752e-03,-3.16
6.784e-03,-3.2
6.816e-03,-3.24
6.848e-03,-3.24
6.880e-03,-3.32
6.912e-03,-3.32
6.944e-03,-3.36
6.976e-03,-3.4
7.008e-03,-3.4
7.040e-03,-3.44
7.072e-03,-3.44
7.104e-03,-3.44
7.136e-03,-3.44
7.168e-03,-3.48
7.200e-03,-3.48
7.232e-03,-3.48
