data2/4-3_Vout.CSV

Model,TBS1052C
Firmware Version,v2015-08-04-prequal4ch70_v1.3

Point Format,Y
Horizontal Units,S
Horizontal Scale,0.002
Sample Interval,1.6e-05
Filter Frequency,2e+08
Record Length,2000
Gating,0.0% to 100.0%
Probe Attenuation,10
Vertical Units,V
Vertical Offset,0
Vertical Scale,5
Label,
TIME,CH1
-1.600e-02,5.4
-1.598e-02,5.4
-1.597e-02,5.4
-1.595e-02,5.2
-1.594e-02,5
-1.592e-02,5
-1.590e-02,5
-1.589e-02,5
-1.587e-02,4.8
-1.586e-02,4.6
-1.584e-02,4.6
-1.582e-02,4.6
-1.581e-02,4.4
-1.579e-02,4.4
-1.578e-02,4.2
-1.576e-02,4.2
-1.574e-02,4.2
-1.573e-02,4
-1.571e-02,3.8
-1.570e-02,3.8
-1.568e-02,3.8
-1.566e-02,3.6
-1.565e-02,3.6
-1.563e-02,3.4
-1.562e-02,3.4
-1.560e-02,3.2
-1.558e-02,3.2
-1.557e-02,3
-1.555e-02,3
-1.554e-02,2.8
-1.552e-02,2.8
-1.550e-02,2.6
-1.549e-02,2.6
-1.547e-02,2.4
-1.546e-02,2.4
-1.544e-02,2.2
-1.542e-02,2.2
-1.541e-02,2
-1.539e-02,2
-1.538e-02,1.8
-1.536e-02,1.8
-1.534e-02,1.6
-1.533e-02,1.6
-1.531e-02,1.6
-1.530e-02,1.4
-1.528e-02,1.2
-1.526e-02,1.2
-1.525e-02,1.2
-1.523e-02,1
-1.522e-02,0.8
-1.520e-02,0.8
-1.518e-02,0.6
-1.517e-02,0.6
-1.515e-02,0.4
-1.514e-02,0.4
-1.512e-02,0.2
-1.510e-02,0.2
-1.509e-02,0
-1.507e-02,0
-1.506e-02,-0.2
-1.504e-02,-0.2
-1.502e-02,-0.4
-1.501e-02,-0.4
-1.499e-02,-0.6
-1.498e-02,-0.6
-1.496e-02,-0.8
-1.494e-02,-0.8
-1.493e-02,-1
-1.491e-02,-1
-1.490e-02,-1.2
-1.488e-02,-1.4
-1.486e-02,-1.4
-1.485e-02,-1.4
-1.483e-02,-1.6
-1.482e-02,-1.8
-1.480e-02,-1.8
-1.478e-02,-1.8
-1.477e-02,-2
-1.475e-02,-2.2
-1.474e-02,-2.2
-1.472e-02,-2.4
-1.470e-02,-2.4
-1.469e-02,-2.4
-1.467e-02,-2.6
-1.466e-02,-2.6
-1.464e-02,-2.8
-1.462e-02,-2.8
-1.461e-02,-3
-1.459e-02,-3
-1.458e-02,-3.2
-1.456e-02,-3.4
-1.454e-02,-3.4
-1.453e-02,-3.6
-1.451e-02,-3.6
-1.450e-02,-3.8
-1.448e-02,-3.8
-1.446e-02,-4
-1.445e-02,-4
-1.443e-02,-4.2
-1.442e-02,-4.2
-1.440e-02,-4.4
-1.438e-02,-4.4
-1.437e-02,-4.4
-1.435e-02,-4.6
-1.434e-02,-4.6
-1.432e-02,-4.8
-1.430e-02,-5
-1.429e-02,-5
-1.427e-02,-5
-1.426e-02,-5.2
-1.424e-02,-5.2
-1.422e-02,-5.2
-1.421e-02,-5.4
-1.419e-02,-5.4
-1.418e-02,-5.6
-1.416e-02,-5.6
-1.414e-02,-5.8
-1.413e-02,-5.8
-1.411e-02,-5.8
-1.410e-02,-6
-1.408e-02,-6
-1.406e-02,-6.2
-1.405e-02,-6.2
-1.403e-02,-6.4
-1.402e-02,-6.4
-1.400e-02,-6.4
-1.398e-02,-6.6
-1.397e-02,-6.6
-1.395e-02,-6.8
-1.394e-02,-6.8
-1.392e-02,-6.8
-1.390e-02,-7
-1.389e-02,-7
-1.387e-02,-7.2
-1.386e-02,-7.2
-1.384e-02,-7.2
-1.382e-02,-7.4
-1.381e-02,-7.4
-1.379e-02,-7.4
-1.378e-02,-7.6
-1.376e-02,-7.6
-1.374e-02,-7.6
-1.373e-02,-7.8
-1.371e-02,-7.8
-1.370e-02,-7.8
-1.368e-02,-8
-1.366e-02,-8.2
-1.365e-02,-8
-1.363e-02,-8.2
-1.362e-02,-8.2
-1.360e-02,-8.2
-1.358e-02,-8.4
-1.357e-02,-8.4
-1.355e-02,-8.4
-1.354e-02,-8.6
-1.352e-02,-8.6
-1.350e-02,-8.8
-1.349e-02,-8.8
-1.347e-02,-8.8
-1.346e-02,-8.8
-1.344e-02,-9
-1.342e-02,-9
-1.341e-02,-9
-1.339e-02,-9
-1.338e-02,-9.2
-1.336e-02,-9.2
-1.334e-02,-9.2
-1.333e-02,-9.2
-1.331e-02,-9.2
-1.330e-02,-9.4
-1.328e-02,-9.4
-1.326e-02,-9.4
-1.325e-02,-9.4
-1.323e-02,-9.4
-1.322e-02,-9.6
-1.320e-02,-9.6
-1.318e-02,-9.6
-1.317e-02,-9.6
-1.315e-02,-9.6
-1.314e-02,-9.8
-1.312e-02,-9.8
-1.310e-02,-9.8
-1.309e-02,-9.8
-1.307e-02,-10
-1.306e-02,-10
-1.304e-02,-10
-1.302e-02,-10
-1.301e-02,-10
-1.299e-02,-10
-1.298e-02,-10.2
-1.296e-02,-10
-1.294e-02,-10.2
-1.293e-02,-10.2
-1.291e-02,-10.2
-1.290e-02,-10.2
-1.288e-02,-10.2
-1.286e-02,-10.2
-1.285e-02,-10.2
-1.283e-02,-10.2
-1.282e-02,-10.4
-1.280e-02,-10.4
-1.278e-02,-10.4
-1.277e-02,-10.4
-1.275e-02,-10.4
-1.274e-02,-10.4
-1.272e-02,-10.4
-1.270e-02,-10.4
-1.269e-02,-10.4
-1.267e-02,-10.4
-1.266e-02,-10.4
-1.264e-02,-10.4
-1.262e-02,-10.4
-1.261e-02,-10.4
-1.259e-02,-10.4
-1.258e-02,-10.4
-1.256e-02,-10.4
-1.254e-02,-10.4
-1.253e-02,-10.4
-1.251e-02,-10.4
-1.250e-02,-10.4
-1.248e-02,-10.4
-1.246e-02,-10.4
-1.245e-02,-10.4
-1.243e-02,-10.4
-1.242e-02,-10.4
-1.240e-02,-10.4
-1.238e-02,-10.4
-1.237e-02,-10.4
-1.235e-02,-10.4
-1.234e-02,-10.4
-1.232e-02,-10.4
-1.230e-02,-10.4
-1.229e-02,-10.2
-1.227e-02,-10.4
-1.226e-02,-10.4
-1.224e-02,-10.2
-1.222e-02,-10.2
-1.221e-02,-10.2
-1.219e-02,-10.2
-1.218e-02,-10.2
-1.216e-02,-10.2
-1.214e-02,-10.2
-1.213e-02,-10
-1.211e-02,-10
-1.210e-02,-10
-1.208e-02,-10
-1.206e-02,-10
-1.205e-02,-9.8
-1.203e-02,-10
-1.202e-02,-9.8
-1.200e-02,-9.8
-1.198e-02,-9.8
-1.197e-02,-9.8
-1.195e-02,-9.6
-1.194e-02,-9.6
-1.192e-02,-9.6
-1.190e-02,-9.6
-1.189e-02,-9.6
-1.187e-02,-9.4
-1.186e-02,-9.4
-1.184e-02,-9.4
-1.182e-02,-9.4
-1.181e-02,-9.4
-1.179e-02,-9.4
-1.178e-02,-9.2
-1.176e-02,-9.2
-1.174e-02,-9.2
-1.173e-02,-9.2
-1.171e-02,-9
-1.170e-02,-9
-1.168e-02,-9
-1.166e-02,-8.8
-1.165e-02,-8.8
-1.163e-02,-8.8
-1.162e-02,-8.8
-1.160e-02,-8.6
-1.158e-02,-8.6
-1.157e-02,-8.6
-1.155e-02,-8.4
-1.154e-02,-8.4
-1.152e-02,-8.4
-1.150e-02,-8.2
-1.149e-02,-8.2
-1.147e-02,-8.2
-1.146e-02,-8.2
-1.144e-02,-8
-1.142e-02,-8
-1.141e-02,-7.8
-1.139e-02,-7.8
-1.138e-02,-7.8
-1.136e-02,-7.6
-1.134e-02,-7.6
-1.133e-02,-7.6
-1.131e-02,-7.6
-1.130e-02,-7.4
-1.128e-02,-7.4
-1.126e-02,-7.2
-1.125e-02,-7.2
-1.123e-02,-7
-1.122e-02,-7
-1.120e-02,-7
-1.118e-02,-7
-1.117e-02,-6.8
-1.115e-02,-6.6
-1.114e-02,-6.6
-1.112e-02,-6.6
-1.110e-02,-6.4
-1.109e-02,-6.4
-1.107e-02,-6.4
-1.106e-02,-6.4
-1.104e-02,-6.2
-1.102e-02,-6
-1.101e-02,-6
-1.099e-02,-6
-1.098e-02,-5.8
-1.096e-02,-5.8
-1.094e-02,-5.6
-1.093e-02,-5.4
-1.091e-02,-5.4
-1.090e-02,-5.4
-1.088e-02,-5.4
-1.086e-02,-5.2
-1.085e-02,-5.2
-1.083e-02,-5
-1.082e-02,-5
-1.080e-02,-4.8
-1.078e-02,-4.8
-1.077e-02,-4.8
-1.075e-02,-4.6
-1.074e-02,-4.4
-1.072e-02,-4.4
-1.070e-02,-4.2
-1.069e-02,-4.2
-1.067e-02,-4.2
-1.066e-02,-4
-1.064e-02,-4
-1.062e-02,-3.8
-1.061e-02,-3.8
-1.059e-02,-3.6
-1.058e-02,-3.6
-1.056e-02,-3.4
-1.054e-02,-3.4
-1.053e-02,-3.2
-1.051e-02,-3
-1.050e-02,-3
-1.048e-02,-3
-1.046e-02,-2.8
-1.045e-02,-2.8
-1.043e-02,-2.6
-1.042e-02,-2.6
-1.040e-02,-2.4
-1.038e-02,-2.4
-1.037e-02,-2.2
-1.035e-02,-2.2
-1.034e-02,-2
-1.032e-02,-2
-1.030e-02,-1.8
-1.029e-02,-1.8
-1.027e-02,-1.6
-1.026e-02,-1.6
-1.024e-02,-1.4
-1.022e-02,-1.4
-1.021e-02,-1.2
-1.019e-02,-1.2
-1.018e-02,-1
-1.016e-02,-1
-1.014e-02,-0.8
-1.013e-02,-0.8
-1.011e-02,-0.6
-1.010e-02,-0.6
-1.008e-02,-0.4
-1.006e-02,-0.4
-1.005e-02,-0.2
-1.003e-02,-0.2
-1.002e-02,0
-1.000e-02,0.2
-9.984e-03,0.2
-9.968e-03,0.2
-9.952e-03,0.4
-9.936e-03,0.4
-9.920e-03,0.6
-9.904e-03,0.8
-9.888e-03,0.8
-9.872e-03,0.8
-9.856e-03,1
-9.840e-03,1
-9.824e-03,1.2
-9.808e-03,1.4
-9.792e-03,1.4
-9.776e-03,1.6
-9.760e-03,1.6
-9.744e-03,1.8
-9.728e-03,1.8
-9.712e-03,2
-9.696e-03,2
-9.680e-03,2.2
-9.664e-03,2.2
-9.648e-03,2.4
-9.632e-03,2.4
-9.616e-03,2.6
-9.600e-03,2.6
-9.584e-03,2.6
-9.568e-03,2.8
-9.552e-03,2.8
-9.536e-03,3
-9.520e-03,3.2
-9.504e-03,3.2
-9.488e-03,3.4
-9.472e-03,3.4
-9.456e-03,3.4
-9.440e-03,3.6
-9.424e-03,3.6
-9.408e-03,3.6
-9.392e-03,3.8
-9.376e-03,4
-9.360e-03,4
-9.344e-03,4.2
-9.328e-03,4.2
-9.312e-03,4.4
-9.296e-03,4.4
-9.280e-03,4.4
-9.264e-03,4.6
-9.248e-03,4.6
-9.232e-03,4.8
-9.216e-03,4.8
-9.200e-03,5
-9.184e-03,5
-9.168e-03,5
-9.152e-03,5.2
-9.136e-03,5.2
-9.120e-03,5.4
-9.104e-03,5.4
-9.088e-03,5.6
-9.072e-03,5.6
-9.056e-03,5.6
-9.040e-03,5.8
-9.024e-03,5.8
-9.008e-03,6
-8.992e-03,6
-8.976e-03,6
-8.960e-03,6.2
-8.944e-03,6.4
-8.928e-03,6.4
-8.912e-03,6.4
-8.896e-03,6.4
-8.880e-03,6.6
-8.864e-03,6.6
-8.848e-03,6.8
-8.832e-03,6.8
-8.816e-03,6.8
-8.800e-03,7
-8.784e-03,7
-8.768e-03,7
-8.752e-03,7.2
-8.736e-03,7.2
-8.720e-03,7.2
-8.704e-03,7.4
-8.688e-03,7.4
-8.672e-03,7.6
-8.656e-03,7.6
-8.640e-03,7.6
-8.624e-03,7.8
-8.608e-03,7.8
-8.592e-03,7.8
-8.576e-03,8
-8.560e-03,8
-8.544e-03,8
-8.528e-03,8
-8.512e-03,8.2
-8.496e-03,8.2
-8.480e-03,8.2
-8.464e-03,8.4
-8.448e-03,8.4
-8.432e-03,8.4
-8.416e-03,8.4
-8.400e-03,8.6
-8.384e-03,8.6
-8.368e-03,8.6
-8.352e-03,8.6
-8.336e-03,8.8
-8.320e-03,8.8
-8.304e-03,8.8
-8.288e-03,8.8
-8.272e-03,9
-8.256e-03,9
-8.240e-03,9
-8.224e-03,9
-8.208e-03,9.2
-8.192e-03,9.2
-8.176e-03,9.2
-8.160e-03,9.2
-8.144e-03,9.2
-8.128e-03,9.4
-8.112e-03,9.4
-8.096e-03,9.4
-8.080e-03,9.4
-8.064e-03,9.4
-8.048e-03,9.4
-8.032e-03,9.6
-8.016e-03,9.4
-8.000e-03,9.6
-7.984e-03,9.6
-7.968e-03,9.6
-7.952e-03,9.6
-7.936e-03,9.6
-7.920e-03,9.8
-7.904e-03,9.8
-7.888e-03,9.8
-7.872e-03,9.8
-7.856e-03,9.8
-7.840e-03,9.8
-7.824e-03,9.8
-7.808e-03,9.8
-7.792e-03,9.8
-7.776e-03,9.8
-7.760e-03,9.8
-7.744e-03,9.8
-7.728e-03,9.8
-7.712e-03,9.8
-7.696e-03,10
-7.680e-03,10
-7.664e-03,10
-7.648e-03,10
-7.632e-03,10
-7.616e-03,10
-7.600e-03,10
-7.584e-03,10
-7.568e-03,10
-7.552e-03,10
-7.536e-03,10
-7.520e-03,10
-7.504e-03,10
-7.488e-03,10
-7.472e-03,10
-7.456e-03,10
-7.440e-03,10
-7.424e-03,10
-7.408e-03,10
-7.392e-03,10
-7.376e-03,10
-7.360e-03,10
-7.344e-03,9.8
-7.328e-03,9.8
-7.312e-03,9.8
-7.296e-03,9.8
-7.280e-03,9.8
-7.264e-03,9.8
-7.248e-03,9.8
-7.232e-03,9.8
-7.216e-03,9.8
-7.200e-03,9.6
-7.184e-03,9.8
-7.168e-03,9.8
-7.152e-03,9.6
-7.136e-03,9.6
-7.120e-03,9.8
-7.104e-03,9.6
-7.088e-03,9.6
-7.072e-03,9.4
-7.056e-03,9.4
-7.040e-03,9.4
-7.024e-03,9.4
-7.008e-03,9.4
-6.992e-03,9.2
-6.976e-03,9.4
-6.960e-03,9.2
-6.944e-03,9.2
-6.928e-03,9.2
-6.912e-03,9.2
-6.896e-03,9
-6.880e-03,9
-6.864e-03,9
-6.848e-03,9
-6.832e-03,8.8
-6.816e-03,8.8
-6.800e-03,8.8
-6.784e-03,8.8
-6.768e-03,8.8
-6.752e-03,8.6
-6.736e-03,8.6
-6.720e-03,8.6
-6.704e-03,8.6
-6.688e-03,8.4
-6.672e-03,8.6
-6.656e-03,8.4
-6.640e-03,8.4
-6.624e-03,8.2
-6.608e-03,8.2
-6.592e-03,8.2
-6.576e-03,8.2
-6.560e-03,8
-6.544e-03,8
-6.528e-03,8
-6.512e-03,7.8
-6.496e-03,7.8
-6.480e-03,7.6
-6.464e-03,7.6
-6.448e-03,7.6
-6.432e-03,7.6
-6.416e-03,7.4
-6.400e-03,7.4
-6.384e-03,7.4
-6.368e-03,7.2
-6.352e-03,7.2
-6.336e-03,7.2
-6.320e-03,7
-6.304e-03,7
-6.288e-03,6.8
-6.272e-03,6.8
-6.256e-03,6.8
-6.240e-03,6.6
-6.224e-03,6.6
-6.208e-03,6.6
-6.192e-03,6.4
-6.176e-03,6.4
-6.160e-03,6.4
-6.144e-03,6.2
-6.128e-03,6.2
-6.112e-03,6
-6.096e-03,6
-6.080e-03,5.8
-6.064e-03,5.8
-6.048e-03,5.8
-6.032e-03,5.6
-6.016e-03,5.4
-6.000e-03,5.4
-5.984e-03,5.4
-5.968e-03,5.4
-5.952e-03,5.2
-5.936e-03,5.2
-5.920e-03,5
-5.904e-03,4.8
-5.888e-03,4.8
-5.872e-03,4.8
-5.856e-03,4.6
-5.840e-03,4.6
-5.824e-03,4.6
-5.808e-03,4.4
-5.792e-03,4.4
-5.776e-03,4.2
-5.760e-03,4.2
-5.744e-03,4
-5.728e-03,4
-5.712e-03,4
-5.696e-03,3.8
-5.680e-03,3.8
-5.664e-03,3.6
-5.648e-03,3.6
-5.632e-03,3.4
-5.616e-03,3.4
-5.600e-03,3.2
-5.584e-03,3.2
-5.568e-03,3
-5.552e-03,3
-5.536e-03,2.8
-5.520e-03,2.8
-5.504e-03,2.6
-5.488e-03,2.6
-5.472e-03,2.4
-5.456e-03,2.4
-5.440e-03,2.2
-5.424e-03,2.2
-5.408e-03,2
-5.392e-03,2
-5.376e-03,2
-5.360e-03,1.8
-5.344e-03,1.8
-5.328e-03,1.6
-5.312e-03,1.4
-5.296e-03,1.4
-5.280e-03,1.4
-5.264e-03,1.2
-5.248e-03,1
-5.232e-03,1
-5.216e-03,0.8
-5.200e-03,0.8
-5.184e-03,0.6
-5.168e-03,0.4
-5.152e-03,0.4
-5.136e-03,0.4
-5.120e-03,0.2
-5.104e-03,0.2
-5.088e-03,0
-5.072e-03,0
-5.056e-03,-0.2
-5.040e-03,-0.4
-5.024e-03,-0.4
-5.008e-03,-0.6
-4.992e-03,-0.6
-4.976e-03,-0.6
-4.960e-03,-0.8
-4.944e-03,-1
-4.928e-03,-1
-4.912e-03,-1.2
-4.896e-03,-1.2
-4.880e-03,-1.4
-4.864e-03,-1.4
-4.848e-03,-1.4
-4.832e-03,-1.6
-4.816e-03,-1.8
-4.800e-03,-1.8
-4.784e-03,-1.8
-4.768e-03,-2
-4.752e-03,-2.2
-4.736e-03,-2.2
-4.720e-03,-2.4
-4.704e-03,-2.4
-4.688e-03,-2.4
-4.672e-03,-2.6
-4.656e-03,-2.6
-4.640e-03,-2.8
-4.624e-03,-2.8
-4.608e-03,-3
-4.592e-03,-3.2
-4.576e-03,-3.2
-4.560e-03,-3.2
-4.544e-03,-3.4
-4.528e-03,-3.4
-4.512e-03,-3.6
-4.496e-03,-3.8
-4.480e-03,-3.8
-4.464e-03,-3.8
-4.448e-03,-4
-4.432e-03,-4.2
-4.416e-03,-4.2
-4.400e-03,-4.2
-4.384e-03,-4.4
-4.368e-03,-4.4
-4.352e-03,-4.6
-4.336e-03,-4.6
-4.320e-03,-4.8
-4.304e-03,-4.8
-4.288e-03,-5
-4.272e-03,-5
-4.256e-03,-5
-4.240e-03,-5.2
-4.224e-03,-5.4
-4.208e-03,-5.4
-4.192e-03,-5.4
-4.176e-03,-5.6
-4.160e-03,-5.6
-4.144e-03,-5.8
-4.128e-03,-5.8
-4.112e-03,-5.8
-4.096e-03,-6
-4.080e-03,-6
-4.064e-03,-6.2
-4.048e-03,-6.2
-4.032e-03,-6.2
-4.016e-03,-6.4
-4.000e-03,-6.4
-3.984e-03,-6.6
-3.968e-03,-6.6
-3.952e-03,-6.8
-3.936e-03,-6.8
-3.920e-03,-6.8
-3.904e-03,-7
-3.888e-03,-7
-3.872e-03,-7.2
-3.856e-03,-7.2
-3.840e-03,-7.2
-3.824e-03,-7.4
-3.808e-03,-7.4
-3.792e-03,-7.4
-3.776e-03,-7.6
-3.760e-03,-7.6
-3.744e-03,-7.6
-3.728e-03,-7.8
-3.712e-03,-7.8
-3.696e-03,-7.8
-3.680e-03,-8
-3.664e-03,-8
-3.648e-03,-8
-3.632e-03,-8.2
-3.616e-03,-8.2
-3.600e-03,-8.2
-3.584e-03,-8.4
-3.568e-03,-8.4
-3.552e-03,-8.4
-3.536e-03,-8.4
-3.520e-03,-8.6
-3.504e-03,-8.6
-3.488e-03,-8.6
-3.472e-03,-8.8
-3.456e-03,-8.8
-3.440e-03,-8.8
-3.424e-03,-9
-3.408e-03,-9
-3.392e-03,-9
-3.376e-03,-9
-3.360e-03,-9.2
-3.344e-03,-9.2
-3.328e-03,-9.2
-3.312e-03,-9.2
-3.296e-03,-9.4
-3.280e-03,-9.4
-3.264e-03,-9.4
-3.248e-03,-9.4
-3.232e-03,-9.6
-3.216e-03,-9.6
-3.200e-03,-9.6
-3.184e-03,-9.6
-3.168e-03,-9.6
-3.152e-03,-9.6
-3.136e-03,-9.6
-3.120e-03,-9.8
-3.104e-03,-9.8
-3.088e-03,-9.8
-3.072e-03,-10
-3.056e-03,-10
-3.040e-03,-10
-3.024e-03,-10
-3.008e-03,-10
-2.992e-03,-10
-2.976e-03,-10
-2.960e-03,-10.2
-2.944e-03,-10
-2.928e-03,-10.2
-2.912e-03,-10.2
-2.896e-03,-10.2
-2.880e-03,-10.2
-2.864e-03,-10.4
-2.848e-03,-10.4
-2.832e-03,-10.4
-2.816e-03,-10.4
-2.800e-03,-10.4
-2.784e-03,-10.4
-2.768e-03,-10.4
-2.752e-03,-10.4
-2.736e-03,-10.4
-2.720e-03,-10.4
-2.704e-03,-10.4
-2.688e-03,-10.4
-2.672e-03,-10.4
-2.656e-03,-10.4
-2.640e-03,-10.4
-2.624e-03,-10.4
-2.608e-03,-10.4
-2.592e-03,-10.4
-2.576e-03,-10.6
-2.560e-03,-10.4
-2.544e-03,-10.4
-2.528e-03,-10.4
-2.512e-03,-10.4
-2.496e-03,-10.4
-2.480e-03,-10.4
-2.464e-03,-10.4
-2.448e-03,-10.4
-2.432e-03,-10.4
-2.416e-03,-10.4
-2.400e-03,-10.4
-2.384e-03,-10.4
-2.368e-03,-10.4
-2.352e-03,-10.4
-2.336e-03,-10.4
-2.320e-03,-10.4
-2.304e-03,-10.4
-2.288e-03,-10.4
-2.272e-03,-10.2
-2.256e-03,-10.2
-2.240e-03,-10.2
-2.224e-03,-10.2
-2.208e-03,-10.2
-2.192e-03,-10.2
-2.176e-03,-10.2
-2.160e-03,-10.2
-2.144e-03,-10.2
-2.128e-03,-10
-2.112e-03,-10.2
-2.096e-03,-10
-2.080e-03,-10
-2.064e-03,-10
-2.048e-03,-10
-2.032e-03,-10
-2.016e-03,-9.8
-2.000e-03,-9.8
-1.984e-03,-9.8
-1.968e-03,-9.8
-1.952e-03,-9.8
-1.936e-03,-9.6
-1.920e-03,-9.6
-1.904e-03,-9.6
-1.888e-03,-9.6
-1.872e-03,-9.6
-1.856e-03,-9.6
-1.840e-03,-9.4
-1.824e-03,-9.4
-1.808e-03,-9.4
-1.792e-03,-9.4
-1.776e-03,-9.2
-1.760e-03,-9.2
-1.744e-03,-9.2
-1.728e-03,-9
-1.712e-03,-9
-1.696e-03,-9
-1.680e-03,-9
-1.664e-03,-8.8
-1.648e-03,-8.8
-1.632e-03,-8.8
-1.616e-03,-8.8
-1.600e-03,-8.8
-1.584e-03,-8.6
-1.568e-03,-8.6
-1.552e-03,-8.4
-1.536e-03,-8.4
-1.520e-03,-8.4
-1.504e-03,-8.2
-1.488e-03,-8.2
-1.472e-03,-8.2
-1.456e-03,-8.2
-1.440e-03,-8
-1.424e-03,-8
-1.408e-03,-7.8
-1.392e-03,-7.8
-1.376e-03,-7.8
-1.360e-03,-7.8
-1.344e-03,-7.6
-1.328e-03,-7.6
-1.312e-03,-7.4
-1.296e-03,-7.4
-1.280e-03,-7.2
-1.264e-03,-7.2
-1.248e-03,-7.2
-1.232e-03,-7.2
-1.216e-03,-7
-1.200e-03,-7
-1.184e-03,-7
-1.168e-03,-6.8
-1.152e-03,-6.8
-1.136e-03,-6.6
-1.120e-03,-6.6
-1.104e-03,-6.6
-1.088e-03,-6.4
-1.072e-03,-6.4
-1.056e-03,-6.2
-1.040e-03,-6.2
-1.024e-03,-6
-1.008e-03,-6
-9.920e-04,-5.8
-9.760e-04,-5.8
-9.600e-04,-5.8
-9.440e-04,-5.6
-9.280e-04,-5.6
-9.120e-04,-5.6
-8.960e-04,-5.4
-8.800e-04,-5.4
-8.640e-04,-5.2
-8.480e-04,-5.2
-8.320e-04,-5
-8.160e-04,-5
-8.000e-04,-4.8
-7.840e-04,-4.8
-7.680e-04,-4.6
-7.520e-04,-4.6
-7.360e-04,-4.6
-7.200e-04,-4.4
-7.040e-04,-4.2
-6.880e-04,-4.2
-6.720e-04,-4.2
-6.560e-04,-4
-6.400e-04,-4
-6.240e-04,-3.8
-6.080e-04,-3.8
-5.920e-04,-3.6
-5.760e-04,-3.6
-5.600e-04,-3.4
-5.440e-04,-3.4
-5.280e-04,-3.2
-5.120e-04,-3.2
-4.960e-04,-3.2
-4.800e-04,-3
-4.640e-04,-2.8
-4.480e-04,-2.8
-4.320e-04,-2.6
-4.160e-04,-2.6
-4.000e-04,-2.4
-3.840e-04,-2.4
-3.680e-04,-2.2
-3.520e-04,-2.2
-3.360e-04,-2
-3.200e-04,-2
-3.040e-04,-1.8
-2.880e-04,-1.8
-2.720e-04,-1.6
-2.560e-04,-1.6
-2.400e-04,-1.4
-2.240e-04,-1.2
-2.080e-04,-1.2
-1.920e-04,-1
-1.760e-04,-1
-1.600e-04,-1
-1.440e-04,-0.8
-1.280e-04,-0.8
-1.120e-04,-0.6
-9.600e-05,-0.6
-8.000e-05,-0.4
-6.400e-05,-0.4
-4.800e-05,-0.2
-3.200e-05,-0.2
-1.600e-05,0
2.440e-16,0
1.600e-05,0.2
3.200e-05,0.2
4.800e-05,0.4
6.400e-05,0.4
8.000e-05,0.6
9.600e-05,0.8
1.120e-04,0.8
1.280e-04,1
1.440e-04,1
1.600e-04,1.2
1.760e-04,1.2
1.920e-04,1.4
2.080e-04,1.4
2.240e-04,1.6
2.400e-04,1.6
2.560e-04,1.8
2.720e-04,1.8
2.880e-04,2
3.040e-04,2
3.200e-04,2
3.360e-04,2.2
3.520e-04,2.4
3.680e-04,2.4
3.840e-04,2.4
4.000e-04,2.6
4.160e-04,2.8
4.320e-04,2.8
4.480e-04,2.8
4.640e-04,3
4.800e-04,3.2
4.960e-04,3.2
5.120e-04,3.2
5.280e-04,3.4
5.440e-04,3.6
5.600e-04,3.6
5.760e-04,3.8
5.920e-04,3.8
6.080e-04,3.8
6.240e-04,3.8
6.400e-04,4
6.560e-04,4.2
6.720e-04,4.2
6.880e-04,4.2
7.040e-04,4.4
7.200e-04,4.4
7.360e-04,4.6
7.520e-04,4.6
7.680e-04,4.8
7.840e-04,4.8
8.000e-04,5
8.160e-04,5
8.320e-04,5.2
8.480e-04,5.2
8.640e-04,5.2
8.800e-04,5.2
8.960e-04,5.4
9.120e-04,5.4
9.280e-04,5.6
9.440e-04,5.6
9.600e-04,5.8
9.760e-04,5.8
9.920e-04,6
1.008e-03,6
1.024e-03,6
1.040e-03,6.2
1.056e-03,6.2
1.072e-03,6.4
1.088e-03,6.4
1.104e-03,6.4
1.120e-03,6.6
1.136e-03,6.6
1.152e-03,6.8
1.168e-03,6.8
1.184e-03,6.8
1.200e-03,7
1.216e-03,7
1.232e-03,7
1.248e-03,7.2
1.264e-03,7.2
1.280e-03,7.2
1.296e-03,7.4
1.312e-03,7.4
1.328e-03,7.6
1.344e-03,7.6
1.360e-03,7.6
1.376e-03,7.8
1.392e-03,7.8
1.408e-03,7.8
1.424e-03,7.8
1.440e-03,7.8
1.456e-03,8
1.472e-03,8.2
1.488e-03,8.2
1.504e-03,8.2
1.520e-03,8.2
1.536e-03,8.2
1.552e-03,8.4
1.568e-03,8.4
1.584e-03,8.6
1.600e-03,8.6
1.616e-03,8.6
1.632e-03,8.6
1.648e-03,8.6
1.664e-03,8.6
1.680e-03,8.8
1.696e-03,8.8
1.712e-03,9
1.728e-03,9
1.744e-03,9
1.760e-03,9
1.776e-03,9
1.792e-03,9
1.808e-03,9.2
1.824e-03,9.2
1.840e-03,9.2
1.856e-03,9.2
1.872e-03,9.2
1.888e-03,9.4
1.904e-03,9.4
1.920e-03,9.4
1.936e-03,9.4
1.952e-03,9.4
1.968e-03,9.4
1.984e-03,9.6
2.000e-03,9.6
2.016e-03,9.6
2.032e-03,9.6
2.048e-03,9.6
2.064e-03,9.6
2.080e-03,9.6
2.096e-03,9.6
2.112e-03,9.6
2.128e-03,9.8
2.144e-03,9.8
2.160e-03,9.8
2.176e-03,9.8
2.192e-03,9.8
2.208e-03,9.8
2.224e-03,9.8
2.240e-03,9.8
2.256e-03,9.8
2.272e-03,9.8
2.288e-03,10
2.304e-03,10
2.320e-03,10
2.336e-03,9.8
2.352e-03,10
2.368e-03,10
2.384e-03,10
2.400e-03,10
2.416e-03,10
2.432e-03,10
2.448e-03,10
2.464e-03,10
2.480e-03,9.8
2.496e-03,10
2.512e-03,10
2.528e-03,10
2.544e-03,10
2.560e-03,9.8
2.576e-03,10
2.592e-03,10
2.608e-03,10
2.624e-03,10
2.640e-03,9.8
2.656e-03,9.8
2.672e-03,9.8
2.688e-03,9.8
2.704e-03,9.8
2.720e-03,9.8
2.736e-03,9.8
2.752e-03,9.8
2.768e-03,9.8
2.784e-03,9.6
2.800e-03,9.8
2.816e-03,9.6
2.832e-03,9.6
2.848e-03,9.6
2.864e-03,9.6
2.880e-03,9.6
2.896e-03,9.6
2.912e-03,9.6
2.928e-03,9.4
2.944e-03,9.4
2.960e-03,9.4
2.976e-03,9.4
2.992e-03,9.4
3.008e-03,9.4
3.024e-03,9.4
3.040e-03,9.2
3.056e-03,9.2
3.072e-03,9.2
3.088e-03,9.2
3.104e-03,9
3.120e-03,9
3.136e-03,9
3.152e-03,9
3.168e-03,9
3.184e-03,8.8
3.200e-03,8.8
3.216e-03,8.8
3.232e-03,8.8
3.248e-03,8.6
3.264e-03,8.6
3.280e-03,8.6
3.296e-03,8.4
3.312e-03,8.4
3.328e-03,8.4
3.344e-03,8.4
3.360e-03,8.4
3.376e-03,8.2
3.392e-03,8.2
3.408e-03,8.2
3.424e-03,8
3.440e-03,8
3.456e-03,8
3.472e-03,8
3.488e-03,7.8
3.504e-03,7.8
3.520e-03,7.8
3.536e-03,7.6
3.552e-03,7.6
3.568e-03,7.6
3.584e-03,7.4
3.600e-03,7.4
3.616e-03,7.4
3.632e-03,7.2
3.648e-03,7.2
3.664e-03,7.2
3.680e-03,7
3.696e-03,7
3.712e-03,7
3.728e-03,6.8
3.744e-03,6.8
3.760e-03,6.6
3.776e-03,6.6
3.792e-03,6.6
3.808e-03,6.4
3.824e-03,6.4
3.840e-03,6.2
3.856e-03,6.2
3.872e-03,6
3.888e-03,6
3.904e-03,6
3.920e-03,5.8
3.936e-03,5.8
3.952e-03,5.6
3.968e-03,5.6
3.984e-03,5.6
4.000e-03,5.4
4.016e-03,5.4
4.032e-03,5.2
4.048e-03,5.2
4.064e-03,5.2
4.080e-03,5
4.096e-03,5
4.112e-03,4.8
4.128e-03,4.8
4.144e-03,4.6
4.160e-03,4.6
4.176e-03,4.6
4.192e-03,4.4
4.208e-03,4.4
4.224e-03,4.2
4.240e-03,4.2
4.256e-03,4
4.272e-03,4
4.288e-03,3.8
4.304e-03,3.8
4.320e-03,3.6
4.336e-03,3.6
4.352e-03,3.4
4.368e-03,3.4
4.384e-03,3.4
4.400e-03,3.2
4.416e-03,3.2
4.432e-03,3
4.448e-03,3
4.464e-03,2.8
4.480e-03,2.8
4.496e-03,2.6
4.512e-03,2.6
4.528e-03,2.4
4.544e-03,2.4
4.560e-03,2.2
4.576e-03,2.2
4.592e-03,2
4.608e-03,2
4.624e-03,1.8
4.640e-03,1.8
4.656e-03,1.6
4.672e-03,1.4
4.688e-03,1.4
4.704e-03,1.4
4.720e-03,1.2
4.736e-03,1.2
4.752e-03,1
4.768e-03,0.8
4.784e-03,0.8
4.800e-03,0.6
4.816e-03,0.6
4.832e-03,0.6
4.848e-03,0.4
4.864e-03,0.2
4.880e-03,0.2
4.896e-03,0
4.912e-03,0
4.928e-03,-0.2
4.944e-03,-0.2
4.960e-03,-0.2
4.976e-03,-0.4
4.992e-03,-0.4
5.008e-03,-0.6
5.024e-03,-0.8
